"v1A","hobj1"
"v1A","hobj2"
"v1","hobj1"
"v2A","hobj2"
"v2A","hobj3"
"v2","hobj2"
"v3A","hobj3"
"v3A","hobj4"
"v3","hobj3"
"v4A","hobj4"
"v4A","hobj5"
"v4","hobj4"
"v5A","hobj5"
"v5A","hobj6"
"v5","hobj5"
"v6A","hobj6"
"v6A","hobj7"
"v6","hobj6"
"v7A","hobj7"
"v7","hobj7"
