digraph graphname {
   commentnode [fillcolor=lightyellow shape=box label="GRAPH GENERATED FROM TEST DATA\ndata:  data/testdata-fieldsensitive6/\ngreen edges - NEW\nblack edges - ASSIGN\nred egdes - STORE\nblue edges - LOAD"]
  v2 -> v3 [label=store_f color=red fontcolor=red];
  v4 -> v5 [label=load_f color=blue fontcolor=blue];
  hobj [fillcolor=green]
  hobj -> v1 [color=darkgreen fontcolor=darkgreen];
  v3 -> v4 [color=black fontcolor=black];
  v1 -> v3 [color=black fontcolor=black];
  v1 -> v2 [color=black fontcolor=black];
}
