"org.apache.commons.cli.CommandLine.<init>/$r1","org.apache.commons.cli.CommandLine.<init>/r0","<org.apache.commons.cli.CommandLine:_sjava.util.List_sargs>"
"org.apache.commons.cli.CommandLine.<init>/$r2","org.apache.commons.cli.CommandLine.<init>/r0","<org.apache.commons.cli.CommandLine:_sjava.util.List_soptions>"
"<org.apache.commons.cli.MissingArgumentException:_svoid_s<init>(org.apache.commons.cli.Option)>/r1","<org.apache.commons.cli.MissingArgumentException:_svoid_s<init>(org.apache.commons.cli.Option)>/r0","<org.apache.commons.cli.MissingArgumentException:_sorg.apache.commons.cli.Option_soption>"
"<org.apache.commons.cli.MissingOptionException:_svoid_s<init>(java.util.List)>/r1","<org.apache.commons.cli.MissingOptionException:_svoid_s<init>(java.util.List)>/r0","<org.apache.commons.cli.MissingOptionException:_sjava.util.List_smissingOptions>"
"org.apache.commons.cli.Option.clone/$r2","org.apache.commons.cli.Option.clone/r1","<org.apache.commons.cli.Option:_sjava.util.List_svalues>"
"org.apache.commons.cli.Option.setArgName/r1","org.apache.commons.cli.Option.setArgName/r0","<org.apache.commons.cli.Option:_sjava.lang.String_sargName>"
"org.apache.commons.cli.Option.setDescription/r1","org.apache.commons.cli.Option.setDescription/r0","<org.apache.commons.cli.Option:_sjava.lang.String_sdescription>"
"org.apache.commons.cli.Option.setLongOpt/r1","org.apache.commons.cli.Option.setLongOpt/r0","<org.apache.commons.cli.Option:_sjava.lang.String_slongOpt>"
"org.apache.commons.cli.Option.setType/r1","org.apache.commons.cli.Option.setType/r0","<org.apache.commons.cli.Option:_sjava.lang.Object_stype>"
"org.apache.commons.cli.Options.<init>/$r1","org.apache.commons.cli.Options.<init>/r0","<org.apache.commons.cli.Options:_sjava.util.Map_sshortOpts>"
"org.apache.commons.cli.Options.<init>/$r2","org.apache.commons.cli.Options.<init>/r0","<org.apache.commons.cli.Options:_sjava.util.Map_slongOpts>"
"org.apache.commons.cli.Options.<init>/$r3","org.apache.commons.cli.Options.<init>/r0","<org.apache.commons.cli.Options:_sjava.util.List_srequiredOpts>"
"org.apache.commons.cli.Options.<init>/$r4","org.apache.commons.cli.Options.<init>/r0","<org.apache.commons.cli.Options:_sjava.util.Map_soptionGroups>"
"<org.apache.commons.cli.Option:_svoid_s<init>(java.lang.String_cjava.lang.String_cboolean_cjava.lang.String)>/r1","<org.apache.commons.cli.Option:_svoid_s<init>(java.lang.String_cjava.lang.String_cboolean_cjava.lang.String)>/r0","<org.apache.commons.cli.Option:_sjava.lang.String_sopt>"
"<org.apache.commons.cli.Option:_svoid_s<init>(java.lang.String_cjava.lang.String_cboolean_cjava.lang.String)>/r2","<org.apache.commons.cli.Option:_svoid_s<init>(java.lang.String_cjava.lang.String_cboolean_cjava.lang.String)>/r0","<org.apache.commons.cli.Option:_sjava.lang.String_slongOpt>"
"<org.apache.commons.cli.Option:_svoid_s<init>(java.lang.String_cjava.lang.String_cboolean_cjava.lang.String)>/r3","<org.apache.commons.cli.Option:_svoid_s<init>(java.lang.String_cjava.lang.String_cboolean_cjava.lang.String)>/r0","<org.apache.commons.cli.Option:_sjava.lang.String_sdescription>"
"<org.apache.commons.cli.Option:_svoid_s<init>(java.lang.String_cjava.lang.String_cboolean_cjava.lang.String)>/$r4","<org.apache.commons.cli.Option:_svoid_s<init>(java.lang.String_cjava.lang.String_cboolean_cjava.lang.String)>/r0","<org.apache.commons.cli.Option:_sjava.util.List_svalues>"
"<org.apache.commons.cli.Option:_svoid_s<init>(java.lang.String_cjava.lang.String_cboolean_cjava.lang.String)>/$stringconstant0","<org.apache.commons.cli.Option:_svoid_s<init>(java.lang.String_cjava.lang.String_cboolean_cjava.lang.String)>/r0","<org.apache.commons.cli.Option:_sjava.lang.String_sargName>"
"org.apache.commons.cli.Parser.setOptions/r1","org.apache.commons.cli.Parser.setOptions/r0","<org.apache.commons.cli.Parser:_sorg.apache.commons.cli.Options_soptions>"
"org.apache.commons.cli.Parser.setOptions/$r2","org.apache.commons.cli.Parser.setOptions/r0","<org.apache.commons.cli.Parser:_sjava.util.List_srequiredOptions>"
"<org.apache.commons.cli.Parser:_sorg.apache.commons.cli.CommandLine_sparse(org.apache.commons.cli.Options_cjava.lang.String[]_cjava.util.Properties_cboolean)>/$r11","<org.apache.commons.cli.Parser:_sorg.apache.commons.cli.CommandLine_sparse(org.apache.commons.cli.Options_cjava.lang.String[]_cjava.util.Properties_cboolean)>/r0","<org.apache.commons.cli.Parser:_sorg.apache.commons.cli.CommandLine_scmd>"
"org.apache.commons.cli.PosixParser.burstToken/$r10","org.apache.commons.cli.PosixParser.burstToken/r0","<org.apache.commons.cli.PosixParser:_sorg.apache.commons.cli.Option_scurrentOption>"
"org.apache.commons.cli.PosixParser.flatten/r1","org.apache.commons.cli.PosixParser.flatten/r0","<org.apache.commons.cli.PosixParser:_sorg.apache.commons.cli.Options_soptions>"
"org.apache.commons.cli.PosixParser.flatten/$r9","org.apache.commons.cli.PosixParser.flatten/r0","<org.apache.commons.cli.PosixParser:_sorg.apache.commons.cli.Option_scurrentOption>"
"org.apache.commons.cli.PosixParser.<init>/$r1","org.apache.commons.cli.PosixParser.<init>/r0","<org.apache.commons.cli.PosixParser:_sjava.util.List_stokens>"
"org.apache.commons.cli.PosixParser.processOptionToken/$r5","org.apache.commons.cli.PosixParser.processOptionToken/r0","<org.apache.commons.cli.PosixParser:_sorg.apache.commons.cli.Option_scurrentOption>"
"<org.apache.commons.cli.UnrecognizedOptionException:_svoid_s<init>(java.lang.String_cjava.lang.String)>/r2","<org.apache.commons.cli.UnrecognizedOptionException:_svoid_s<init>(java.lang.String_cjava.lang.String)>/r0","<org.apache.commons.cli.UnrecognizedOptionException:_sjava.lang.String_soption>"
"<org.codehaus.janino.Scanner$ScanException:_svoid_s<init>(org.codehaus.janino.Scanner_cjava.lang.String_cjava.lang.Throwable)>/r1","<org.codehaus.janino.Scanner$ScanException:_svoid_s<init>(org.codehaus.janino.Scanner_cjava.lang.String_cjava.lang.Throwable)>/r0","<org.codehaus.janino.Scanner$ScanException:_sorg.codehaus.janino.Scanner_sthis$0>"
"<org.codehaus.janino.Scanner$ScanException:_svoid_s<init>(org.codehaus.janino.Scanner_cjava.lang.String)>/r1","<org.codehaus.janino.Scanner$ScanException:_svoid_s<init>(org.codehaus.janino.Scanner_cjava.lang.String)>/r0","<org.codehaus.janino.Scanner$ScanException:_sorg.codehaus.janino.Scanner_sthis$0>"
"org.codehaus.janino.util.CausedException.initCause/r1","org.codehaus.janino.util.CausedException.initCause/r0","<org.codehaus.janino.util.CausedException:_sjava.lang.Throwable_soptionalCause>"
"<org.codehaus.janino.util.LocatedException:_svoid_s<init>(java.lang.String_corg.codehaus.janino.Location_cjava.lang.Throwable)>/r2","<org.codehaus.janino.util.LocatedException:_svoid_s<init>(java.lang.String_corg.codehaus.janino.Location_cjava.lang.Throwable)>/r0","<org.codehaus.janino.util.LocatedException:_sorg.codehaus.janino.Location_soptionalLocation>"
"<org.codehaus.janino.util.LocatedException:_svoid_s<init>(java.lang.String_corg.codehaus.janino.Location)>/r2","<org.codehaus.janino.util.LocatedException:_svoid_s<init>(java.lang.String_corg.codehaus.janino.Location)>/r0","<org.codehaus.janino.util.LocatedException:_sorg.codehaus.janino.Location_soptionalLocation>"
"org.dacapo.harness.Benchmark.initialize/$r32","org.dacapo.harness.Benchmark.initialize/r0","<org.dacapo.harness.Benchmark:_sjava.lang.ClassLoader_sloader>"
"<org.dacapo.harness.Benchmark:_svoid_s<init>(org.dacapo.parser.Config_cjava.io.File_cboolean)>/r1","<org.dacapo.harness.Benchmark:_svoid_s<init>(org.dacapo.parser.Config_cjava.io.File_cboolean)>/r0","<org.dacapo.harness.Benchmark:_sorg.dacapo.parser.Config_sconfig>"
"<org.dacapo.harness.Benchmark:_svoid_s<init>(org.dacapo.parser.Config_cjava.io.File_cboolean)>/r2","<org.dacapo.harness.Benchmark:_svoid_s<init>(org.dacapo.parser.Config_cjava.io.File_cboolean)>/r0","<org.dacapo.harness.Benchmark:_sjava.io.File_sscratch>"
"org.dacapo.harness.Benchmark.useBenchmarkClassLoader/$r3","org.dacapo.harness.Benchmark.useBenchmarkClassLoader/r0","<org.dacapo.harness.Benchmark:_sjava.lang.ClassLoader_ssavedClassLoader>"
"org.dacapo.harness.Callback.init/$r10","org.dacapo.harness.Callback.init/r0","<org.dacapo.harness.Callback:_sorg.dacapo.harness.Callback$Mode_smode>"
"org.dacapo.harness.Callback.init/$r11","org.dacapo.harness.Callback.init/r0","<org.dacapo.harness.Callback:_sorg.dacapo.harness.Callback$Mode_smode>"
"org.dacapo.harness.Callback.<init>/r1","org.dacapo.harness.Callback.<init>/r0","<org.dacapo.harness.Callback:_sorg.dacapo.harness.CommandLineArgs_sargs>"
"org.dacapo.harness.Callback.<init>/$r4","org.dacapo.harness.Callback.<init>/r0","<org.dacapo.harness.Callback:_slong[]_stimes>"
"org.dacapo.harness.Callback.init/$r7","org.dacapo.harness.Callback.init/r0","<org.dacapo.harness.Callback:_sorg.dacapo.harness.Callback$Mode_smode>"
"org.dacapo.harness.Callback.init/$r8","org.dacapo.harness.Callback.init/r0","<org.dacapo.harness.Callback:_sorg.dacapo.harness.Callback$Mode_smode>"
"org.dacapo.harness.Callback.runAgain/$r12","org.dacapo.harness.Callback.runAgain/r0","<org.dacapo.harness.Callback:_sorg.dacapo.harness.Callback$Mode_smode>"
"org.dacapo.harness.Callback.runAgain/$r36","org.dacapo.harness.Callback.runAgain/r0","<org.dacapo.harness.Callback:_sorg.dacapo.harness.Callback$Mode_smode>"
"org.dacapo.harness.CommandLineArgs.defineCallback/$r27","org.dacapo.harness.CommandLineArgs.defineCallback/r0","<org.dacapo.harness.CommandLineArgs:_sorg.dacapo.harness.Callback_scallback>"
"org.dacapo.harness.CommandLineArgs.defineCallback/$r29","org.dacapo.harness.CommandLineArgs.defineCallback/r0","<org.dacapo.harness.CommandLineArgs:_sorg.dacapo.harness.Callback_scallback>"
"org.dacapo.harness.CommandLineArgs.<init>/$r16","org.dacapo.harness.CommandLineArgs.<init>/r0","<org.dacapo.harness.CommandLineArgs:_sjava.util.List_sbenchmarks>"
"org.dacapo.harness.CommandLineArgs.<init>/$r19","org.dacapo.harness.CommandLineArgs.<init>/r0","<org.dacapo.harness.CommandLineArgs:_sorg.apache.commons.cli.CommandLine_sline>"
"org.dacapo.harness.Sunflow.<init>/$r11","org.dacapo.harness.Sunflow.<init>/r0","<org.dacapo.harness.Sunflow:_sjava.lang.reflect.Method_sendMethod>"
"org.dacapo.harness.Sunflow.<init>/$r17","org.dacapo.harness.Sunflow.<init>/r0","<org.dacapo.harness.Sunflow:_sjava.lang.reflect.Constructor_sconstructor>"
"org.dacapo.harness.Sunflow.<init>/$r7","org.dacapo.harness.Sunflow.<init>/r0","<org.dacapo.harness.Benchmark:_sjava.lang.reflect.Method_smethod>"
"org.dacapo.harness.Sunflow.<init>/$r9","org.dacapo.harness.Sunflow.<init>/r0","<org.dacapo.harness.Sunflow:_sjava.lang.reflect.Method_sbeginMethod>"
"org.dacapo.harness.Sunflow.preIteration/$r15","org.dacapo.harness.Sunflow.preIteration/r0","<org.dacapo.harness.Sunflow:_sjava.lang.Object_ssunflow>"
"org.dacapo.harness.TeeOutputStream.<init>/r2","org.dacapo.harness.TeeOutputStream.<init>/r0","<org.dacapo.harness.TeeOutputStream:_sjava.io.File_slogFile>"
"org.dacapo.harness.TeeOutputStream.newLog/$r1","org.dacapo.harness.TeeOutputStream.newLog/r0","<org.dacapo.harness.TeeOutputStream:_sjava.io.OutputStream_slog>"
"org.dacapo.harness.TestHarness.<init>/$r20","org.dacapo.harness.TestHarness.<init>/r0","<org.dacapo.harness.TestHarness:_sorg.dacapo.parser.Config_sconfig>"
"org.dacapo.parser.ConfigFile.generateParseException/$r7","org.dacapo.parser.ConfigFile.generateParseException/r0","<org.dacapo.parser.ConfigFile:_sint[]_sjj_uscoreexpentry>"
"org.dacapo.parser.ConfigFile.getNextToken/$r1","org.dacapo.parser.ConfigFile.getNextToken/r0","<org.dacapo.parser.ConfigFile:_sorg.dacapo.parser.Token_stoken>"
"org.dacapo.parser.ConfigFile.getNextToken/$r1","org.dacapo.parser.ConfigFile.getNextToken/$r6","<org.dacapo.parser.Token:_sorg.dacapo.parser.Token_snext>"
"org.dacapo.parser.ConfigFile.getNextToken/$r5","org.dacapo.parser.ConfigFile.getNextToken/r0","<org.dacapo.parser.ConfigFile:_sorg.dacapo.parser.Token_stoken>"
"org.dacapo.parser.ConfigFile.getToken/$r2","org.dacapo.parser.ConfigFile.getToken/r1","<org.dacapo.parser.Token:_sorg.dacapo.parser.Token_snext>"
"org.dacapo.parser.ConfigFile.jj_uscoreconsume_uscoretoken/r1","org.dacapo.parser.ConfigFile.jj_uscoreconsume_uscoretoken/r0","<org.dacapo.parser.ConfigFile:_sorg.dacapo.parser.Token_stoken>"
"org.dacapo.parser.ConfigFile.jj_uscoreconsume_uscoretoken/$r2","org.dacapo.parser.ConfigFile.jj_uscoreconsume_uscoretoken/r0","<org.dacapo.parser.ConfigFile:_sorg.dacapo.parser.Token_stoken>"
"org.dacapo.parser.ConfigFile.jj_uscoreconsume_uscoretoken/$r2","org.dacapo.parser.ConfigFile.jj_uscoreconsume_uscoretoken/$r7","<org.dacapo.parser.Token:_sorg.dacapo.parser.Token_snext>"
"org.dacapo.parser.ConfigFile.jj_uscoreconsume_uscoretoken/$r6","org.dacapo.parser.ConfigFile.jj_uscoreconsume_uscoretoken/r0","<org.dacapo.parser.ConfigFile:_sorg.dacapo.parser.Token_stoken>"
"org.dacapo.parser.ConfigFile.jj_uscorentk/$r1","org.dacapo.parser.ConfigFile.jj_uscorentk/r0","<org.dacapo.parser.ConfigFile:_sorg.dacapo.parser.Token_sjj_uscorent>"
"org.dacapo.parser.ConfigFile.jj_uscorentk/$r2","org.dacapo.parser.ConfigFile.jj_uscorentk/$r4","<org.dacapo.parser.Token:_sorg.dacapo.parser.Token_snext>"
"<org.dacapo.parser.ConfigFile:_svoid_s<init>(java.io.InputStream_cjava.lang.String)>/$r11","<org.dacapo.parser.ConfigFile:_svoid_s<init>(java.io.InputStream_cjava.lang.String)>/r0","<org.dacapo.parser.ConfigFile:_sorg.dacapo.parser.Token_stoken>"
"<org.dacapo.parser.ConfigFile:_svoid_s<init>(java.io.InputStream_cjava.lang.String)>/$r4","<org.dacapo.parser.ConfigFile:_svoid_s<init>(java.io.InputStream_cjava.lang.String)>/r0","<org.dacapo.parser.ConfigFile:_sint[]_sjj_uscorela1>"
"<org.dacapo.parser.ConfigFile:_svoid_s<init>(java.io.InputStream_cjava.lang.String)>/$r5","<org.dacapo.parser.ConfigFile:_svoid_s<init>(java.io.InputStream_cjava.lang.String)>/r0","<org.dacapo.parser.ConfigFile:_sjava.util.List_sjj_uscoreexpentries>"
"<org.dacapo.parser.ConfigFile:_svoid_s<init>(java.io.InputStream_cjava.lang.String)>/$r6","<org.dacapo.parser.ConfigFile:_svoid_s<init>(java.io.InputStream_cjava.lang.String)>/r0","<org.dacapo.parser.ConfigFile:_sorg.dacapo.parser.SimpleCharStream_sjj_uscoreinput_uscorestream>"
"<org.dacapo.parser.ConfigFile:_svoid_s<init>(java.io.InputStream_cjava.lang.String)>/$r9","<org.dacapo.parser.ConfigFile:_svoid_s<init>(java.io.InputStream_cjava.lang.String)>/r0","<org.dacapo.parser.ConfigFile:_sorg.dacapo.parser.ConfigFileTokenManager_stoken_uscoresource>"
"<org.dacapo.parser.ConfigFile:_svoid_s<init>(java.io.Reader)>/$r2","<org.dacapo.parser.ConfigFile:_svoid_s<init>(java.io.Reader)>/r0","<org.dacapo.parser.ConfigFile:_sint[]_sjj_uscorela1>"
"<org.dacapo.parser.ConfigFile:_svoid_s<init>(java.io.Reader)>/$r3","<org.dacapo.parser.ConfigFile:_svoid_s<init>(java.io.Reader)>/r0","<org.dacapo.parser.ConfigFile:_sjava.util.List_sjj_uscoreexpentries>"
"<org.dacapo.parser.ConfigFile:_svoid_s<init>(java.io.Reader)>/$r4","<org.dacapo.parser.ConfigFile:_svoid_s<init>(java.io.Reader)>/r0","<org.dacapo.parser.ConfigFile:_sorg.dacapo.parser.SimpleCharStream_sjj_uscoreinput_uscorestream>"
"<org.dacapo.parser.ConfigFile:_svoid_s<init>(java.io.Reader)>/$r5","<org.dacapo.parser.ConfigFile:_svoid_s<init>(java.io.Reader)>/r0","<org.dacapo.parser.ConfigFile:_sorg.dacapo.parser.ConfigFileTokenManager_stoken_uscoresource>"
"<org.dacapo.parser.ConfigFile:_svoid_s<init>(java.io.Reader)>/$r7","<org.dacapo.parser.ConfigFile:_svoid_s<init>(java.io.Reader)>/r0","<org.dacapo.parser.ConfigFile:_sorg.dacapo.parser.Token_stoken>"
"<org.dacapo.parser.ConfigFile:_svoid_s<init>(org.dacapo.parser.ConfigFileTokenManager)>/r1","<org.dacapo.parser.ConfigFile:_svoid_s<init>(org.dacapo.parser.ConfigFileTokenManager)>/r0","<org.dacapo.parser.ConfigFile:_sorg.dacapo.parser.ConfigFileTokenManager_stoken_uscoresource>"
"<org.dacapo.parser.ConfigFile:_svoid_s<init>(org.dacapo.parser.ConfigFileTokenManager)>/$r2","<org.dacapo.parser.ConfigFile:_svoid_s<init>(org.dacapo.parser.ConfigFileTokenManager)>/r0","<org.dacapo.parser.ConfigFile:_sint[]_sjj_uscorela1>"
"<org.dacapo.parser.ConfigFile:_svoid_s<init>(org.dacapo.parser.ConfigFileTokenManager)>/$r3","<org.dacapo.parser.ConfigFile:_svoid_s<init>(org.dacapo.parser.ConfigFileTokenManager)>/r0","<org.dacapo.parser.ConfigFile:_sjava.util.List_sjj_uscoreexpentries>"
"<org.dacapo.parser.ConfigFile:_svoid_s<init>(org.dacapo.parser.ConfigFileTokenManager)>/$r4","<org.dacapo.parser.ConfigFile:_svoid_s<init>(org.dacapo.parser.ConfigFileTokenManager)>/r0","<org.dacapo.parser.ConfigFile:_sorg.dacapo.parser.Token_stoken>"
"<org.dacapo.parser.ConfigFile:_svoid_sReInit(java.io.InputStream_cjava.lang.String)>/$r9","<org.dacapo.parser.ConfigFile:_svoid_sReInit(java.io.InputStream_cjava.lang.String)>/r0","<org.dacapo.parser.ConfigFile:_sorg.dacapo.parser.Token_stoken>"
"<org.dacapo.parser.ConfigFile:_svoid_sReInit(java.io.Reader)>/$r5","<org.dacapo.parser.ConfigFile:_svoid_sReInit(java.io.Reader)>/r0","<org.dacapo.parser.ConfigFile:_sorg.dacapo.parser.Token_stoken>"
"<org.dacapo.parser.ConfigFile:_svoid_sReInit(org.dacapo.parser.ConfigFileTokenManager)>/r1","<org.dacapo.parser.ConfigFile:_svoid_sReInit(org.dacapo.parser.ConfigFileTokenManager)>/r0","<org.dacapo.parser.ConfigFile:_sorg.dacapo.parser.ConfigFileTokenManager_stoken_uscoresource>"
"<org.dacapo.parser.ConfigFile:_svoid_sReInit(org.dacapo.parser.ConfigFileTokenManager)>/$r2","<org.dacapo.parser.ConfigFile:_svoid_sReInit(org.dacapo.parser.ConfigFileTokenManager)>/r0","<org.dacapo.parser.ConfigFile:_sorg.dacapo.parser.Token_stoken>"
"org.dacapo.parser.ConfigFileTokenManager.getNextToken/r1","org.dacapo.parser.ConfigFileTokenManager.getNextToken/r16","<org.dacapo.parser.Token:_sorg.dacapo.parser.Token_sspecialToken>"
"org.dacapo.parser.ConfigFileTokenManager.getNextToken/r1","org.dacapo.parser.ConfigFileTokenManager.getNextToken/r21","<org.dacapo.parser.Token:_sorg.dacapo.parser.Token_sspecialToken>"
"org.dacapo.parser.ConfigFileTokenManager.getNextToken/r1","org.dacapo.parser.ConfigFileTokenManager.getNextToken/r3","<org.dacapo.parser.Token:_sorg.dacapo.parser.Token_sspecialToken>"
"org.dacapo.parser.ConfigFileTokenManager.getNextToken/r21","org.dacapo.parser.ConfigFileTokenManager.getNextToken/r1","<org.dacapo.parser.Token:_sorg.dacapo.parser.Token_snext>"
"org.dacapo.parser.ConfigFileTokenManager.getNextToken/$r8","org.dacapo.parser.ConfigFileTokenManager.getNextToken/r0","<org.dacapo.parser.ConfigFileTokenManager:_sjava.lang.StringBuffer_simage>"
"org.dacapo.parser.ConfigFileTokenManager.setDebugStream/r1","org.dacapo.parser.ConfigFileTokenManager.setDebugStream/r0","<org.dacapo.parser.ConfigFileTokenManager:_sjava.io.PrintStream_sdebugStream>"
"<org.dacapo.parser.ConfigFileTokenManager:_svoid_s<init>(org.dacapo.parser.SimpleCharStream)>/r1","<org.dacapo.parser.ConfigFileTokenManager:_svoid_s<init>(org.dacapo.parser.SimpleCharStream)>/r0","<org.dacapo.parser.ConfigFileTokenManager:_sorg.dacapo.parser.SimpleCharStream_sinput_uscorestream>"
"<org.dacapo.parser.ConfigFileTokenManager:_svoid_s<init>(org.dacapo.parser.SimpleCharStream)>/$r2","<org.dacapo.parser.ConfigFileTokenManager:_svoid_s<init>(org.dacapo.parser.SimpleCharStream)>/r0","<org.dacapo.parser.ConfigFileTokenManager:_sjava.io.PrintStream_sdebugStream>"
"<org.dacapo.parser.ConfigFileTokenManager:_svoid_s<init>(org.dacapo.parser.SimpleCharStream)>/$r3","<org.dacapo.parser.ConfigFileTokenManager:_svoid_s<init>(org.dacapo.parser.SimpleCharStream)>/r0","<org.dacapo.parser.ConfigFileTokenManager:_sint[]_sjjrounds>"
"<org.dacapo.parser.ConfigFileTokenManager:_svoid_s<init>(org.dacapo.parser.SimpleCharStream)>/$r4","<org.dacapo.parser.ConfigFileTokenManager:_svoid_s<init>(org.dacapo.parser.SimpleCharStream)>/r0","<org.dacapo.parser.ConfigFileTokenManager:_sint[]_sjjstateSet>"
"<org.dacapo.parser.ConfigFileTokenManager:_svoid_s<init>(org.dacapo.parser.SimpleCharStream)>/$r5","<org.dacapo.parser.ConfigFileTokenManager:_svoid_s<init>(org.dacapo.parser.SimpleCharStream)>/r0","<org.dacapo.parser.ConfigFileTokenManager:_sjava.lang.StringBuffer_sjjimage>"
"<org.dacapo.parser.ConfigFileTokenManager:_svoid_s<init>(org.dacapo.parser.SimpleCharStream)>/$r6","<org.dacapo.parser.ConfigFileTokenManager:_svoid_s<init>(org.dacapo.parser.SimpleCharStream)>/r0","<org.dacapo.parser.ConfigFileTokenManager:_sjava.lang.StringBuffer_simage>"
"<org.dacapo.parser.ConfigFileTokenManager:_svoid_sReInit(org.dacapo.parser.SimpleCharStream)>/r1","<org.dacapo.parser.ConfigFileTokenManager:_svoid_sReInit(org.dacapo.parser.SimpleCharStream)>/r0","<org.dacapo.parser.ConfigFileTokenManager:_sorg.dacapo.parser.SimpleCharStream_sinput_uscorestream>"
"org.dacapo.parser.Config.<init>/r1","org.dacapo.parser.Config.<init>/r0","<org.dacapo.parser.Config:_sjava.lang.String_sname>"
"org.dacapo.parser.Config.<init>/$r2","org.dacapo.parser.Config.<init>/r0","<org.dacapo.parser.Config:_sjava.util.HashMap_ssizes>"
"org.dacapo.parser.Config.<init>/$r3","org.dacapo.parser.Config.<init>/r0","<org.dacapo.parser.Config:_sjava.util.HashMap_sdesc>"
"org.dacapo.parser.Config$OutputFile.<init>/r1","org.dacapo.parser.Config$OutputFile.<init>/r0","<org.dacapo.parser.Config$OutputFile:_sorg.dacapo.parser.Config_sthis$0>"
"org.dacapo.parser.Config$OutputFile.<init>/r2","org.dacapo.parser.Config$OutputFile.<init>/r0","<org.dacapo.parser.Config$OutputFile:_sjava.lang.String_sname>"
"org.dacapo.parser.Config.setClass/r1","org.dacapo.parser.Config.setClass/r0","<org.dacapo.parser.Config:_sjava.lang.String_sclassName>"
"org.dacapo.parser.Config.setDigest/r3","org.dacapo.parser.Config.setDigest/$r5","<org.dacapo.parser.Config$OutputFile:_sjava.lang.String_sdigest>"
"org.dacapo.parser.Config.setJar/r1","org.dacapo.parser.Config.setJar/r0","<org.dacapo.parser.Config:_sjava.lang.String_sjar>"
"org.dacapo.parser.Config.setLibs/r1","org.dacapo.parser.Config.setLibs/r0","<org.dacapo.parser.Config:_sjava.lang.String[]_slibs>"
"org.dacapo.parser.Config.setThreadModel/r1","org.dacapo.parser.Config.setThreadModel/r0","<org.dacapo.parser.Config:_sorg.dacapo.parser.Config$ThreadModel_sthreadModel>"
"org.dacapo.parser.Config$Size.<init>/r1","org.dacapo.parser.Config$Size.<init>/r0","<org.dacapo.parser.Config$Size:_sorg.dacapo.parser.Config_sthis$0>"
"org.dacapo.parser.Config$Size.<init>/r2","org.dacapo.parser.Config$Size.<init>/r0","<org.dacapo.parser.Config$Size:_sjava.lang.String_sname>"
"org.dacapo.parser.Config$Size.<init>/$r4","org.dacapo.parser.Config$Size.<init>/r0","<org.dacapo.parser.Config$Size:_sjava.util.HashMap_soutputFiles>"
"org.dacapo.parser.Config$Size.<init>/$r8","org.dacapo.parser.Config$Size.<init>/r0","<org.dacapo.parser.Config$Size:_sjava.lang.String[]_sargs>"
"org.dacapo.parser.Config$Size.setDesc/r1","org.dacapo.parser.Config$Size.setDesc/r0","<org.dacapo.parser.Config$Size:_sjava.lang.String_sdescription>"
"org.dacapo.parser.Config$ThreadModel.<init>/r2","org.dacapo.parser.Config$ThreadModel.<init>/r0","<org.dacapo.parser.Config$ThreadModel:_sjava.lang.String_sdescription>"
"<org.dacapo.parser.ParseException:_svoid_s<init>(java.lang.String)>/$r2","<org.dacapo.parser.ParseException:_svoid_s<init>(java.lang.String)>/r0","<org.dacapo.parser.ParseException:_sjava.lang.String_seol>"
"<org.dacapo.parser.ParseException:_svoid_s<init>(org.dacapo.parser.Token_cint[][]_cjava.lang.String[])>/r1","<org.dacapo.parser.ParseException:_svoid_s<init>(org.dacapo.parser.Token_cint[][]_cjava.lang.String[])>/r0","<org.dacapo.parser.ParseException:_sorg.dacapo.parser.Token_scurrentToken>"
"<org.dacapo.parser.ParseException:_svoid_s<init>(org.dacapo.parser.Token_cint[][]_cjava.lang.String[])>/r2","<org.dacapo.parser.ParseException:_svoid_s<init>(org.dacapo.parser.Token_cint[][]_cjava.lang.String[])>/r0","<org.dacapo.parser.ParseException:_sint[][]_sexpectedTokenSequences>"
"<org.dacapo.parser.ParseException:_svoid_s<init>(org.dacapo.parser.Token_cint[][]_cjava.lang.String[])>/r3","<org.dacapo.parser.ParseException:_svoid_s<init>(org.dacapo.parser.Token_cint[][]_cjava.lang.String[])>/r0","<org.dacapo.parser.ParseException:_sjava.lang.String[]_stokenImage>"
"<org.dacapo.parser.ParseException:_svoid_s<init>(org.dacapo.parser.Token_cint[][]_cjava.lang.String[])>/$r5","<org.dacapo.parser.ParseException:_svoid_s<init>(org.dacapo.parser.Token_cint[][]_cjava.lang.String[])>/r0","<org.dacapo.parser.ParseException:_sjava.lang.String_seol>"
"<org.dacapo.parser.ParseException:_svoid_s<init>()>/$r1","<org.dacapo.parser.ParseException:_svoid_s<init>()>/r0","<org.dacapo.parser.ParseException:_sjava.lang.String_seol>"
"org.dacapo.parser.SimpleCharStream.ExpandBuff/r1","org.dacapo.parser.SimpleCharStream.ExpandBuff/r0","<org.dacapo.parser.SimpleCharStream:_schar[]_sbuffer>"
"org.dacapo.parser.SimpleCharStream.ExpandBuff/r2","org.dacapo.parser.SimpleCharStream.ExpandBuff/r0","<org.dacapo.parser.SimpleCharStream:_sint[]_sbufline>"
"org.dacapo.parser.SimpleCharStream.ExpandBuff/r3","org.dacapo.parser.SimpleCharStream.ExpandBuff/r0","<org.dacapo.parser.SimpleCharStream:_sint[]_sbufcolumn>"
"<org.dacapo.parser.SimpleCharStream:_svoid_s<init>(java.io.Reader_cint_cint_cint)>/r1","<org.dacapo.parser.SimpleCharStream:_svoid_s<init>(java.io.Reader_cint_cint_cint)>/r0","<org.dacapo.parser.SimpleCharStream:_sjava.io.Reader_sinputStream>"
"<org.dacapo.parser.SimpleCharStream:_svoid_s<init>(java.io.Reader_cint_cint_cint)>/$r2","<org.dacapo.parser.SimpleCharStream:_svoid_s<init>(java.io.Reader_cint_cint_cint)>/r0","<org.dacapo.parser.SimpleCharStream:_schar[]_sbuffer>"
"<org.dacapo.parser.SimpleCharStream:_svoid_s<init>(java.io.Reader_cint_cint_cint)>/$r3","<org.dacapo.parser.SimpleCharStream:_svoid_s<init>(java.io.Reader_cint_cint_cint)>/r0","<org.dacapo.parser.SimpleCharStream:_sint[]_sbufline>"
"<org.dacapo.parser.SimpleCharStream:_svoid_s<init>(java.io.Reader_cint_cint_cint)>/$r4","<org.dacapo.parser.SimpleCharStream:_svoid_s<init>(java.io.Reader_cint_cint_cint)>/r0","<org.dacapo.parser.SimpleCharStream:_sint[]_sbufcolumn>"
"<org.dacapo.parser.SimpleCharStream:_svoid_sReInit(java.io.Reader_cint_cint_cint)>/r1","<org.dacapo.parser.SimpleCharStream:_svoid_sReInit(java.io.Reader_cint_cint_cint)>/r0","<org.dacapo.parser.SimpleCharStream:_sjava.io.Reader_sinputStream>"
"<org.dacapo.parser.SimpleCharStream:_svoid_sReInit(java.io.Reader_cint_cint_cint)>/$r4","<org.dacapo.parser.SimpleCharStream:_svoid_sReInit(java.io.Reader_cint_cint_cint)>/r0","<org.dacapo.parser.SimpleCharStream:_schar[]_sbuffer>"
"<org.dacapo.parser.SimpleCharStream:_svoid_sReInit(java.io.Reader_cint_cint_cint)>/$r5","<org.dacapo.parser.SimpleCharStream:_svoid_sReInit(java.io.Reader_cint_cint_cint)>/r0","<org.dacapo.parser.SimpleCharStream:_sint[]_sbufline>"
"<org.dacapo.parser.SimpleCharStream:_svoid_sReInit(java.io.Reader_cint_cint_cint)>/$r6","<org.dacapo.parser.SimpleCharStream:_svoid_sReInit(java.io.Reader_cint_cint_cint)>/r0","<org.dacapo.parser.SimpleCharStream:_sint[]_sbufcolumn>"
"<org.dacapo.parser.Token:_svoid_s<init>(int_cjava.lang.String)>/r1","<org.dacapo.parser.Token:_svoid_s<init>(int_cjava.lang.String)>/r0","<org.dacapo.parser.Token:_sjava.lang.String_simage>"
"org.sunflow.Benchmark$BenchmarkScene.<init>/r1","org.sunflow.Benchmark$BenchmarkScene.<init>/r0","<org.sunflow.Benchmark$BenchmarkScene:_sorg.sunflow.Benchmark_sthis$0>"
"org.sunflow.Benchmark.kernelBegin/$r1","org.sunflow.Benchmark.kernelBegin/r0","<org.sunflow.Benchmark:_sint[]_svalidationImage>"
"<org.sunflow.Benchmark:_svoid_s<init>(int_cboolean_cboolean_cboolean_cint)>/$r17","<org.sunflow.Benchmark:_svoid_s<init>(int_cboolean_cboolean_cboolean_cint)>/r0","<org.sunflow.Benchmark:_sint[]_sreferenceImage>"
"org.sunflow.core.accel.BoundingIntervalHierarchy.build/$r18","org.sunflow.core.accel.BoundingIntervalHierarchy.build/r0","<org.sunflow.core.accel.BoundingIntervalHierarchy:_sint[]_stree>"
"org.sunflow.core.accel.BoundingIntervalHierarchy.build/r1","org.sunflow.core.accel.BoundingIntervalHierarchy.build/r0","<org.sunflow.core.accel.BoundingIntervalHierarchy:_sorg.sunflow.core.PrimitiveList_sprimitives>"
"org.sunflow.core.accel.BoundingIntervalHierarchy.build/$r7","org.sunflow.core.accel.BoundingIntervalHierarchy.build/r0","<org.sunflow.core.accel.BoundingIntervalHierarchy:_sorg.sunflow.math.BoundingBox_sbounds>"
"org.sunflow.core.accel.BoundingIntervalHierarchy.build/$r8","org.sunflow.core.accel.BoundingIntervalHierarchy.build/r0","<org.sunflow.core.accel.BoundingIntervalHierarchy:_sint[]_sobjects>"
"org.sunflow.core.accel.KDTree.build/r1","org.sunflow.core.accel.KDTree.build/r0","<org.sunflow.core.accel.KDTree:_sorg.sunflow.core.PrimitiveList_sprimitiveList>"
"org.sunflow.core.accel.KDTree.build/$r32","org.sunflow.core.accel.KDTree.build/r0","<org.sunflow.core.accel.KDTree:_sorg.sunflow.math.BoundingBox_sbounds>"
"org.sunflow.core.accel.KDTree.build/$r63","org.sunflow.core.accel.KDTree.build/r0","<org.sunflow.core.accel.KDTree:_sint[]_stree>"
"org.sunflow.core.accel.KDTree.build/$r64","org.sunflow.core.accel.KDTree.build/r0","<org.sunflow.core.accel.KDTree:_sint[]_sprimitives>"
"<org.sunflow.core.accel.KDTree$BuildTask:_svoid_s<init>(int_corg.sunflow.core.accel.KDTree$BuildTask)>/$r2","<org.sunflow.core.accel.KDTree$BuildTask:_svoid_s<init>(int_corg.sunflow.core.accel.KDTree$BuildTask)>/r0","<org.sunflow.core.accel.KDTree$BuildTask:_slong[]_ssplits>"
"<org.sunflow.core.accel.KDTree$BuildTask:_svoid_s<init>(int_corg.sunflow.core.accel.KDTree$BuildTask)>/$r3","<org.sunflow.core.accel.KDTree$BuildTask:_svoid_s<init>(int_corg.sunflow.core.accel.KDTree$BuildTask)>/r0","<org.sunflow.core.accel.KDTree$BuildTask:_sbyte[]_sleftRightTable>"
"<org.sunflow.core.accel.KDTree$BuildTask:_svoid_s<init>(int)>/$r1","<org.sunflow.core.accel.KDTree$BuildTask:_svoid_s<init>(int)>/r0","<org.sunflow.core.accel.KDTree$BuildTask:_slong[]_ssplits>"
"<org.sunflow.core.accel.KDTree$BuildTask:_svoid_s<init>(int)>/$r2","<org.sunflow.core.accel.KDTree$BuildTask:_svoid_s<init>(int)>/r0","<org.sunflow.core.accel.KDTree$BuildTask:_sbyte[]_sleftRightTable>"
"org.sunflow.core.accel.KDTree.buildTree/$n0","org.sunflow.core.accel.KDTree.buildTree/r1","<org.sunflow.core.accel.KDTree$BuildTask:_slong[]_ssplits>"
"org.sunflow.core.accel.NullAccelerator.build/r1","org.sunflow.core.accel.NullAccelerator.build/r0","<org.sunflow.core.accel.NullAccelerator:_sorg.sunflow.core.PrimitiveList_sprimitives>"
"org.sunflow.core.Camera.<init>/r1","org.sunflow.core.Camera.<init>/r0","<org.sunflow.core.Camera:_sorg.sunflow.core.CameraLens_slens>"
"org.sunflow.core.Camera.<init>/$r2","org.sunflow.core.Camera.<init>/r0","<org.sunflow.core.Camera:_sorg.sunflow.math.Matrix4[]_sc2w>"
"org.sunflow.core.Camera.<init>/$r2","org.sunflow.core.Camera.<init>/r0","<org.sunflow.core.Camera:_sorg.sunflow.math.Matrix4[]_sw2c>"
"org.sunflow.core.Camera.update/$r3","org.sunflow.core.Camera.update/r0","<org.sunflow.core.Camera:_sorg.sunflow.math.Matrix4[]_sc2w>"
"org.sunflow.core.Camera.update/$r8","org.sunflow.core.Camera.update/r0","<org.sunflow.core.Camera:_sorg.sunflow.math.Matrix4[]_sw2c>"
"org.sunflow.core.display.FileDisplay.imageBegin/$r6","org.sunflow.core.display.FileDisplay.imageBegin/r0","<org.sunflow.core.display.FileDisplay:_sorg.sunflow.image.Bitmap_sbitmap>"
"<org.sunflow.core.display.FileDisplay:_svoid_s<init>(boolean)>/$r2","<org.sunflow.core.display.FileDisplay:_svoid_s<init>(boolean)>/r0","<org.sunflow.core.display.FileDisplay:_sjava.lang.String_sfilename>"
"<org.sunflow.core.display.FileDisplay:_svoid_s<init>(java.lang.String)>/$r3","<org.sunflow.core.display.FileDisplay:_svoid_s<init>(java.lang.String)>/r0","<org.sunflow.core.display.FileDisplay:_sjava.lang.String_sfilename>"
"org.sunflow.core.Geometry.build/$r10","org.sunflow.core.Geometry.build/r0","<org.sunflow.core.Geometry:_sorg.sunflow.core.AccelerationStructure_saccel>"
"org.sunflow.core.Geometry.build/$r7","org.sunflow.core.Geometry.build/r0","<org.sunflow.core.Geometry:_sorg.sunflow.core.AccelerationStructure_saccel>"
"<org.sunflow.core.Geometry:_svoid_s<init>(org.sunflow.core.PrimitiveList)>/r1","<org.sunflow.core.Geometry:_svoid_s<init>(org.sunflow.core.PrimitiveList)>/r0","<org.sunflow.core.Geometry:_sorg.sunflow.core.PrimitiveList_sprimitives>"
"<org.sunflow.core.Geometry:_svoid_s<init>(org.sunflow.core.Tesselatable)>/r1","<org.sunflow.core.Geometry:_svoid_s<init>(org.sunflow.core.Tesselatable)>/r0","<org.sunflow.core.Geometry:_sorg.sunflow.core.Tesselatable_stesselatable>"
"org.sunflow.core.Geometry.tesselate/$r6","org.sunflow.core.Geometry.tesselate/r0","<org.sunflow.core.Geometry:_sorg.sunflow.core.PrimitiveList_sprimitives>"
"org.sunflow.core.Geometry.update/$r4","org.sunflow.core.Geometry.update/r0","<org.sunflow.core.Geometry:_sjava.lang.String_sacceltype>"
"org.sunflow.core.gi.InstantGI.init/$r17","org.sunflow.core.gi.InstantGI.init/r0","<org.sunflow.core.gi.InstantGI:_sorg.sunflow.core.gi.InstantGI$PointLight[][]_svirtualLights>"
"org.sunflow.core.gi.InstantGI.<init>/$r2","org.sunflow.core.gi.InstantGI.<init>/r0","<org.sunflow.core.gi.InstantGI:_sorg.sunflow.core.gi.InstantGI$PointLight[][]_svirtualLights>"
"org.sunflow.core.gi.InstantGI$PointLightStore.store/$r10","org.sunflow.core.gi.InstantGI$PointLightStore.store/r5","<org.sunflow.core.gi.InstantGI$PointLight:_sorg.sunflow.math.Vector3_sn>"
"org.sunflow.core.gi.InstantGI$PointLightStore.store/r3","org.sunflow.core.gi.InstantGI$PointLightStore.store/r5","<org.sunflow.core.gi.InstantGI$PointLight:_sorg.sunflow.image.Color_spower>"
"org.sunflow.core.gi.InstantGI$PointLightStore.store/$r9","org.sunflow.core.gi.InstantGI$PointLightStore.store/r5","<org.sunflow.core.gi.InstantGI$PointLight:_sorg.sunflow.math.Point3_sp>"
"<org.sunflow.core.gi.InstantGI$PointLightStore:_svoid_s<init>(org.sunflow.core.gi.InstantGI)>/r1","<org.sunflow.core.gi.InstantGI$PointLightStore:_svoid_s<init>(org.sunflow.core.gi.InstantGI)>/r0","<org.sunflow.core.gi.InstantGI$PointLightStore:_sorg.sunflow.core.gi.InstantGI_sthis$0>"
"<org.sunflow.core.gi.InstantGI$PointLightStore:_svoid_s<init>(org.sunflow.core.gi.InstantGI)>/$r2","<org.sunflow.core.gi.InstantGI$PointLightStore:_svoid_s<init>(org.sunflow.core.gi.InstantGI)>/r0","<org.sunflow.core.gi.InstantGI$PointLightStore:_sjava.util.ArrayList_svirtualLights>"
"org.sunflow.core.Instance.intersect/r0","org.sunflow.core.Instance.intersect/r2","<org.sunflow.core.IntersectionState:_sorg.sunflow.core.Instance_scurrent>"
"<org.sunflow.core.InstanceList:_svoid_s<init>(org.sunflow.core.Instance[])>/r1","<org.sunflow.core.InstanceList:_svoid_s<init>(org.sunflow.core.Instance[])>/r0","<org.sunflow.core.InstanceList:_sorg.sunflow.core.Instance[]_sinstances>"
"<org.sunflow.core.InstanceList:_svoid_s<init>()>/$r1","<org.sunflow.core.InstanceList:_svoid_s<init>()>/r0","<org.sunflow.core.InstanceList:_sorg.sunflow.core.Instance[]_sinstances>"
"org.sunflow.core.Instance.updateBounds/$r3","org.sunflow.core.Instance.updateBounds/r0","<org.sunflow.core.Instance:_sorg.sunflow.math.BoundingBox_sbounds>"
"org.sunflow.core.Instance.update/$n0","org.sunflow.core.Instance.update/r0","<org.sunflow.core.Instance:_sorg.sunflow.math.Matrix4_so2w>"
"org.sunflow.core.Instance.update/$n0","org.sunflow.core.Instance.update/r0","<org.sunflow.core.Instance:_sorg.sunflow.math.Matrix4_sw2o>"
"org.sunflow.core.Instance.update/$r12","org.sunflow.core.Instance.update/r0","<org.sunflow.core.Instance:_sorg.sunflow.core.Shader[]_sshaders>"
"org.sunflow.core.Instance.update/$r23","org.sunflow.core.Instance.update/r0","<org.sunflow.core.Instance:_sorg.sunflow.core.Modifier[]_smodifiers>"
"org.sunflow.core.Instance.update/r34","org.sunflow.core.Instance.update/r0","<org.sunflow.core.Instance:_sorg.sunflow.math.Matrix4_so2w>"
"org.sunflow.core.Instance.update/$r38","org.sunflow.core.Instance.update/r0","<org.sunflow.core.Instance:_sorg.sunflow.math.Matrix4_sw2o>"
"org.sunflow.core.Instance.update/$r8","org.sunflow.core.Instance.update/r0","<org.sunflow.core.Instance:_sorg.sunflow.core.Geometry_sgeometry>"
"org.sunflow.core.IntersectionState.<init>/$r2","org.sunflow.core.IntersectionState.<init>/r0","<org.sunflow.core.IntersectionState:_sorg.sunflow.core.IntersectionState$StackNode[]_sstack>"
"org.sunflow.core.IntersectionState.<init>/$r5","org.sunflow.core.IntersectionState.<init>/r0","<org.sunflow.core.IntersectionState:_sfloat[]_srstack>"
"org.sunflow.core.IntersectionState.setIntersection/$r1","org.sunflow.core.IntersectionState.setIntersection/r0","<org.sunflow.core.IntersectionState:_sorg.sunflow.core.Instance_sinstance>"
"org.sunflow.core.LightSample.<init>/$n0","org.sunflow.core.LightSample.<init>/r0","<org.sunflow.core.LightSample:_sorg.sunflow.image.Color_sldiff>"
"org.sunflow.core.LightSample.<init>/$n0","org.sunflow.core.LightSample.<init>/r0","<org.sunflow.core.LightSample:_sorg.sunflow.image.Color_slspec>"
"org.sunflow.core.LightSample.setRadiance/$r3","org.sunflow.core.LightSample.setRadiance/r0","<org.sunflow.core.LightSample:_sorg.sunflow.image.Color_sldiff>"
"org.sunflow.core.LightSample.setRadiance/$r4","org.sunflow.core.LightSample.setRadiance/r0","<org.sunflow.core.LightSample:_sorg.sunflow.image.Color_slspec>"
"org.sunflow.core.LightSample.setShadowRay/r1","org.sunflow.core.LightSample.setShadowRay/r0","<org.sunflow.core.LightSample:_sorg.sunflow.core.Ray_sshadowRay>"
"org.sunflow.core.LightServer$1.<init>/r1","org.sunflow.core.LightServer$1.<init>/r0","<org.sunflow.core.LightServer$1:_sorg.sunflow.core.LightServer_sthis$0>"
"org.sunflow.core.LightServer$1.<init>/r2","org.sunflow.core.LightServer$1.<init>/r0","<org.sunflow.core.LightServer$1:_sfloat[]_sval$histogram>"
"org.sunflow.core.LightServer$1.<init>/r3","org.sunflow.core.LightServer$1.<init>/r0","<org.sunflow.core.LightServer$1:_sorg.sunflow.core.PhotonStore_sval$map>"
"org.sunflow.core.LightServer.addShadingCache/$r14","org.sunflow.core.LightServer.addShadingCache/r5","<org.sunflow.core.LightServer$Sample:_sorg.sunflow.core.Instance_si>"
"org.sunflow.core.LightServer.addShadingCache/$r18","org.sunflow.core.LightServer.addShadingCache/r5","<org.sunflow.core.LightServer$Sample:_sorg.sunflow.core.LightServer$Sample_snext>"
"org.sunflow.core.LightServer.addShadingCache/r2","org.sunflow.core.LightServer.addShadingCache/r5","<org.sunflow.core.LightServer$Sample:_sorg.sunflow.core.Shader_ss>"
"org.sunflow.core.LightServer.addShadingCache/r3","org.sunflow.core.LightServer.addShadingCache/r5","<org.sunflow.core.LightServer$Sample:_sorg.sunflow.image.Color_sc>"
"org.sunflow.core.LightServer.addShadingCache/r5","org.sunflow.core.LightServer.addShadingCache/r4","<org.sunflow.core.LightServer$CacheEntry:_sorg.sunflow.core.LightServer$Sample_sfirst>"
"org.sunflow.core.LightServer.build/$r4","org.sunflow.core.LightServer.build/r0","<org.sunflow.core.LightServer:_sorg.sunflow.core.GIEngine_sgiEngine>"
"org.sunflow.core.LightServer.build/r64","org.sunflow.core.LightServer.build/r0","<org.sunflow.core.LightServer:_sorg.sunflow.core.CausticPhotonMapInterface_scausticPhotonMap>"
"org.sunflow.core.LightServer.<init>/r1","org.sunflow.core.LightServer.<init>/r0","<org.sunflow.core.LightServer:_sorg.sunflow.core.Scene_sscene>"
"org.sunflow.core.LightServer.<init>/$r2","org.sunflow.core.LightServer.<init>/r0","<org.sunflow.core.LightServer:_sorg.sunflow.core.LightSource[]_slights>"
"org.sunflow.core.LightServer.setLights/r1","org.sunflow.core.LightServer.setLights/r0","<org.sunflow.core.LightServer:_sorg.sunflow.core.LightSource[]_slights>"
"org.sunflow.core.LightServer.setShaderOverride/r1","org.sunflow.core.LightServer.setShaderOverride/r0","<org.sunflow.core.LightServer:_sorg.sunflow.core.Shader_sshaderOverride>"
"org.sunflow.core.LightServer.shadingCache/$r2","org.sunflow.core.LightServer.shadingCache/r0","<org.sunflow.core.LightServer:_sorg.sunflow.core.LightServer$CacheEntry[]_sshadingCache>"
"org.sunflow.core.light.TriangleMeshLight.<init>/$r1","org.sunflow.core.light.TriangleMeshLight.<init>/r0","<org.sunflow.core.light.TriangleMeshLight:_sorg.sunflow.image.Color_sradiance>"
"org.sunflow.core.light.TriangleMeshLight$TriangleLight.<init>/r1","org.sunflow.core.light.TriangleMeshLight$TriangleLight.<init>/r0","<org.sunflow.core.light.TriangleMeshLight$TriangleLight:_sorg.sunflow.core.light.TriangleMeshLight_sthis$0>"
"org.sunflow.core.light.TriangleMeshLight$TriangleLight.<init>/$r8","org.sunflow.core.light.TriangleMeshLight$TriangleLight.<init>/r0","<org.sunflow.core.light.TriangleMeshLight$TriangleLight:_sorg.sunflow.math.Vector3_sng>"
"org.sunflow.core.light.TriangleMeshLight.update/$r4","org.sunflow.core.light.TriangleMeshLight.update/r0","<org.sunflow.core.light.TriangleMeshLight:_sorg.sunflow.image.Color_sradiance>"
"<org.sunflow.core.ParameterList$FloatParameter:_svoid_s<init>(org.sunflow.core.ParameterList$InterpolationType_cfloat[])>/r1","<org.sunflow.core.ParameterList$FloatParameter:_svoid_s<init>(org.sunflow.core.ParameterList$InterpolationType_cfloat[])>/r0","<org.sunflow.core.ParameterList$FloatParameter:_sorg.sunflow.core.ParameterList$InterpolationType_sinterp>"
"<org.sunflow.core.ParameterList$FloatParameter:_svoid_s<init>(org.sunflow.core.ParameterList$InterpolationType_cfloat[])>/r2","<org.sunflow.core.ParameterList$FloatParameter:_svoid_s<init>(org.sunflow.core.ParameterList$InterpolationType_cfloat[])>/r0","<org.sunflow.core.ParameterList$FloatParameter:_sfloat[]_sdata>"
"org.sunflow.core.ParameterList.<init>/$r1","org.sunflow.core.ParameterList.<init>/r0","<org.sunflow.core.ParameterList:_sorg.sunflow.util.FastHashMap_slist>"
"<org.sunflow.core.ParameterList$Parameter:_svoid_s<init>(boolean)>/$r1","<org.sunflow.core.ParameterList$Parameter:_svoid_s<init>(boolean)>/r0","<org.sunflow.core.ParameterList$Parameter:_sorg.sunflow.core.ParameterList$ParameterType_stype>"
"<org.sunflow.core.ParameterList$Parameter:_svoid_s<init>(boolean)>/$r2","<org.sunflow.core.ParameterList$Parameter:_svoid_s<init>(boolean)>/r0","<org.sunflow.core.ParameterList$Parameter:_sorg.sunflow.core.ParameterList$InterpolationType_sinterp>"
"<org.sunflow.core.ParameterList$Parameter:_svoid_s<init>(boolean)>/$r3","<org.sunflow.core.ParameterList$Parameter:_svoid_s<init>(boolean)>/r0","<org.sunflow.core.ParameterList$Parameter:_sjava.lang.Object_sobj>"
"<org.sunflow.core.ParameterList$Parameter:_svoid_s<init>(float)>/$r1","<org.sunflow.core.ParameterList$Parameter:_svoid_s<init>(float)>/r0","<org.sunflow.core.ParameterList$Parameter:_sorg.sunflow.core.ParameterList$ParameterType_stype>"
"<org.sunflow.core.ParameterList$Parameter:_svoid_s<init>(float)>/$r2","<org.sunflow.core.ParameterList$Parameter:_svoid_s<init>(float)>/r0","<org.sunflow.core.ParameterList$Parameter:_sorg.sunflow.core.ParameterList$InterpolationType_sinterp>"
"<org.sunflow.core.ParameterList$Parameter:_svoid_s<init>(float)>/$r3","<org.sunflow.core.ParameterList$Parameter:_svoid_s<init>(float)>/r0","<org.sunflow.core.ParameterList$Parameter:_sjava.lang.Object_sobj>"
"<org.sunflow.core.ParameterList$Parameter:_svoid_s<init>(int[])>/r1","<org.sunflow.core.ParameterList$Parameter:_svoid_s<init>(int[])>/r0","<org.sunflow.core.ParameterList$Parameter:_sjava.lang.Object_sobj>"
"<org.sunflow.core.ParameterList$Parameter:_svoid_s<init>(int)>/$r1","<org.sunflow.core.ParameterList$Parameter:_svoid_s<init>(int)>/r0","<org.sunflow.core.ParameterList$Parameter:_sorg.sunflow.core.ParameterList$ParameterType_stype>"
"<org.sunflow.core.ParameterList$Parameter:_svoid_s<init>(int)>/$r2","<org.sunflow.core.ParameterList$Parameter:_svoid_s<init>(int)>/r0","<org.sunflow.core.ParameterList$Parameter:_sorg.sunflow.core.ParameterList$InterpolationType_sinterp>"
"<org.sunflow.core.ParameterList$Parameter:_svoid_s<init>(int[])>/$r2","<org.sunflow.core.ParameterList$Parameter:_svoid_s<init>(int[])>/r0","<org.sunflow.core.ParameterList$Parameter:_sorg.sunflow.core.ParameterList$ParameterType_stype>"
"<org.sunflow.core.ParameterList$Parameter:_svoid_s<init>(int)>/$r3","<org.sunflow.core.ParameterList$Parameter:_svoid_s<init>(int)>/r0","<org.sunflow.core.ParameterList$Parameter:_sjava.lang.Object_sobj>"
"<org.sunflow.core.ParameterList$Parameter:_svoid_s<init>(int[])>/$r3","<org.sunflow.core.ParameterList$Parameter:_svoid_s<init>(int[])>/r0","<org.sunflow.core.ParameterList$Parameter:_sorg.sunflow.core.ParameterList$InterpolationType_sinterp>"
"<org.sunflow.core.ParameterList$Parameter:_svoid_s<init>(java.lang.String[])>/r1","<org.sunflow.core.ParameterList$Parameter:_svoid_s<init>(java.lang.String[])>/r0","<org.sunflow.core.ParameterList$Parameter:_sjava.lang.Object_sobj>"
"<org.sunflow.core.ParameterList$Parameter:_svoid_s<init>(java.lang.String)>/$r2","<org.sunflow.core.ParameterList$Parameter:_svoid_s<init>(java.lang.String)>/r0","<org.sunflow.core.ParameterList$Parameter:_sorg.sunflow.core.ParameterList$ParameterType_stype>"
"<org.sunflow.core.ParameterList$Parameter:_svoid_s<init>(java.lang.String[])>/$r2","<org.sunflow.core.ParameterList$Parameter:_svoid_s<init>(java.lang.String[])>/r0","<org.sunflow.core.ParameterList$Parameter:_sorg.sunflow.core.ParameterList$ParameterType_stype>"
"<org.sunflow.core.ParameterList$Parameter:_svoid_s<init>(java.lang.String)>/$r3","<org.sunflow.core.ParameterList$Parameter:_svoid_s<init>(java.lang.String)>/r0","<org.sunflow.core.ParameterList$Parameter:_sorg.sunflow.core.ParameterList$InterpolationType_sinterp>"
"<org.sunflow.core.ParameterList$Parameter:_svoid_s<init>(java.lang.String[])>/$r3","<org.sunflow.core.ParameterList$Parameter:_svoid_s<init>(java.lang.String[])>/r0","<org.sunflow.core.ParameterList$Parameter:_sorg.sunflow.core.ParameterList$InterpolationType_sinterp>"
"<org.sunflow.core.ParameterList$Parameter:_svoid_s<init>(java.lang.String)>/$r4","<org.sunflow.core.ParameterList$Parameter:_svoid_s<init>(java.lang.String)>/r0","<org.sunflow.core.ParameterList$Parameter:_sjava.lang.Object_sobj>"
"<org.sunflow.core.ParameterList$Parameter:_svoid_s<init>(org.sunflow.core.ParameterList$ParameterType_corg.sunflow.core.ParameterList$InterpolationType_cfloat[])>/r1","<org.sunflow.core.ParameterList$Parameter:_svoid_s<init>(org.sunflow.core.ParameterList$ParameterType_corg.sunflow.core.ParameterList$InterpolationType_cfloat[])>/r0","<org.sunflow.core.ParameterList$Parameter:_sorg.sunflow.core.ParameterList$ParameterType_stype>"
"<org.sunflow.core.ParameterList$Parameter:_svoid_s<init>(org.sunflow.core.ParameterList$ParameterType_corg.sunflow.core.ParameterList$InterpolationType_cfloat[])>/r2","<org.sunflow.core.ParameterList$Parameter:_svoid_s<init>(org.sunflow.core.ParameterList$ParameterType_corg.sunflow.core.ParameterList$InterpolationType_cfloat[])>/r0","<org.sunflow.core.ParameterList$Parameter:_sorg.sunflow.core.ParameterList$InterpolationType_sinterp>"
"<org.sunflow.core.ParameterList$Parameter:_svoid_s<init>(org.sunflow.core.ParameterList$ParameterType_corg.sunflow.core.ParameterList$InterpolationType_cfloat[])>/r3","<org.sunflow.core.ParameterList$Parameter:_svoid_s<init>(org.sunflow.core.ParameterList$ParameterType_corg.sunflow.core.ParameterList$InterpolationType_cfloat[])>/r0","<org.sunflow.core.ParameterList$Parameter:_sjava.lang.Object_sobj>"
"<org.sunflow.core.ParameterList$Parameter:_svoid_s<init>(org.sunflow.image.Color)>/r1","<org.sunflow.core.ParameterList$Parameter:_svoid_s<init>(org.sunflow.image.Color)>/r0","<org.sunflow.core.ParameterList$Parameter:_sjava.lang.Object_sobj>"
"<org.sunflow.core.ParameterList$Parameter:_svoid_s<init>(org.sunflow.image.Color)>/$r2","<org.sunflow.core.ParameterList$Parameter:_svoid_s<init>(org.sunflow.image.Color)>/r0","<org.sunflow.core.ParameterList$Parameter:_sorg.sunflow.core.ParameterList$ParameterType_stype>"
"<org.sunflow.core.ParameterList$Parameter:_svoid_s<init>(org.sunflow.image.Color)>/$r3","<org.sunflow.core.ParameterList$Parameter:_svoid_s<init>(org.sunflow.image.Color)>/r0","<org.sunflow.core.ParameterList$Parameter:_sorg.sunflow.core.ParameterList$InterpolationType_sinterp>"
"org.sunflow.core.parser.SCParser.parse/$r13","org.sunflow.core.parser.SCParser.parse/r0","<org.sunflow.core.parser.SCParser:_sorg.sunflow.system.Parser_sp>"
"org.sunflow.core.primitive.QuadMesh.<init>/$r1","org.sunflow.core.primitive.QuadMesh.<init>/r0","<org.sunflow.core.primitive.QuadMesh:_sorg.sunflow.core.ParameterList$FloatParameter_snormals>"
"org.sunflow.core.primitive.QuadMesh.<init>/$r1","org.sunflow.core.primitive.QuadMesh.<init>/r0","<org.sunflow.core.primitive.QuadMesh:_sorg.sunflow.core.ParameterList$FloatParameter_suvs>"
"org.sunflow.core.primitive.QuadMesh.update/$r21","org.sunflow.core.primitive.QuadMesh.update/r0","<org.sunflow.core.primitive.QuadMesh:_sfloat[]_spoints>"
"org.sunflow.core.primitive.QuadMesh.update/r27","org.sunflow.core.primitive.QuadMesh.update/r0","<org.sunflow.core.primitive.QuadMesh:_sorg.sunflow.core.ParameterList$FloatParameter_snormals>"
"org.sunflow.core.primitive.QuadMesh.update/$r29","org.sunflow.core.primitive.QuadMesh.update/r0","<org.sunflow.core.primitive.QuadMesh:_sbyte[]_sfaceShaders>"
"org.sunflow.core.primitive.QuadMesh.update/r3","org.sunflow.core.primitive.QuadMesh.update/r0","<org.sunflow.core.primitive.QuadMesh:_sint[]_squads>"
"org.sunflow.core.primitive.QuadMesh.update/r4","org.sunflow.core.primitive.QuadMesh.update/r0","<org.sunflow.core.primitive.QuadMesh:_sorg.sunflow.core.ParameterList$FloatParameter_suvs>"
"org.sunflow.core.primitive.TriangleMesh.<init>/$r1","org.sunflow.core.primitive.TriangleMesh.<init>/r0","<org.sunflow.core.primitive.TriangleMesh:_sorg.sunflow.core.ParameterList$FloatParameter_snormals>"
"org.sunflow.core.primitive.TriangleMesh.<init>/$r1","org.sunflow.core.primitive.TriangleMesh.<init>/r0","<org.sunflow.core.primitive.TriangleMesh:_sorg.sunflow.core.ParameterList$FloatParameter_suvs>"
"org.sunflow.core.primitive.TriangleMesh.init/$r3","org.sunflow.core.primitive.TriangleMesh.init/r0","<org.sunflow.core.primitive.TriangleMesh:_sorg.sunflow.core.primitive.TriangleMesh$WaldTriangle[]_striaccel>"
"org.sunflow.core.primitive.TriangleMesh.update/$r21","org.sunflow.core.primitive.TriangleMesh.update/r0","<org.sunflow.core.primitive.TriangleMesh:_sfloat[]_spoints>"
"org.sunflow.core.primitive.TriangleMesh.update/r27","org.sunflow.core.primitive.TriangleMesh.update/r0","<org.sunflow.core.primitive.TriangleMesh:_sorg.sunflow.core.ParameterList$FloatParameter_snormals>"
"org.sunflow.core.primitive.TriangleMesh.update/$r29","org.sunflow.core.primitive.TriangleMesh.update/r0","<org.sunflow.core.primitive.TriangleMesh:_sbyte[]_sfaceShaders>"
"org.sunflow.core.primitive.TriangleMesh.update/r3","org.sunflow.core.primitive.TriangleMesh.update/r0","<org.sunflow.core.primitive.TriangleMesh:_sint[]_striangles>"
"org.sunflow.core.primitive.TriangleMesh.update/r4","org.sunflow.core.primitive.TriangleMesh.update/r0","<org.sunflow.core.primitive.TriangleMesh:_sorg.sunflow.core.ParameterList$FloatParameter_suvs>"
"org.sunflow.core.renderer.BucketRenderer$BucketThread.<init>/r1","org.sunflow.core.renderer.BucketRenderer$BucketThread.<init>/r0","<org.sunflow.core.renderer.BucketRenderer$BucketThread:_sorg.sunflow.core.renderer.BucketRenderer_sthis$0>"
"org.sunflow.core.renderer.BucketRenderer$ImageSample.add/$r2","org.sunflow.core.renderer.BucketRenderer$ImageSample.add/r0","<org.sunflow.core.renderer.BucketRenderer$ImageSample:_sorg.sunflow.image.Color_sc>"
"org.sunflow.core.renderer.BucketRenderer$ImageSample.bilerp/r9","org.sunflow.core.renderer.BucketRenderer$ImageSample.bilerp/r0","<org.sunflow.core.renderer.BucketRenderer$ImageSample:_sorg.sunflow.image.Color_sc>"
"org.sunflow.core.renderer.BucketRenderer$ImageSample.set/$r2","org.sunflow.core.renderer.BucketRenderer$ImageSample.set/r0","<org.sunflow.core.renderer.BucketRenderer$ImageSample:_sorg.sunflow.image.Color_sc>"
"org.sunflow.core.renderer.BucketRenderer$ImageSample.set/$r3","org.sunflow.core.renderer.BucketRenderer$ImageSample.set/r0","<org.sunflow.core.renderer.BucketRenderer$ImageSample:_sorg.sunflow.image.Color_sc>"
"org.sunflow.core.renderer.BucketRenderer$ImageSample.set/$r4","org.sunflow.core.renderer.BucketRenderer$ImageSample.set/r0","<org.sunflow.core.renderer.BucketRenderer$ImageSample:_sorg.sunflow.core.Shader_sshader>"
"org.sunflow.core.renderer.BucketRenderer$ImageSample.set/$r5","org.sunflow.core.renderer.BucketRenderer$ImageSample.set/r0","<org.sunflow.core.renderer.BucketRenderer$ImageSample:_sorg.sunflow.core.Instance_sinstance>"
"org.sunflow.core.renderer.BucketRenderer.<init>/$stringconstant0","org.sunflow.core.renderer.BucketRenderer.<init>/r0","<org.sunflow.core.renderer.BucketRenderer:_sjava.lang.String_sbucketOrderName>"
"org.sunflow.core.renderer.BucketRenderer.<init>/$stringconstant1","org.sunflow.core.renderer.BucketRenderer.<init>/r0","<org.sunflow.core.renderer.BucketRenderer:_sjava.lang.String_sfilterName>"
"org.sunflow.core.renderer.BucketRenderer.prepare/$r14","org.sunflow.core.renderer.BucketRenderer.prepare/r0","<org.sunflow.core.renderer.BucketRenderer:_sjava.lang.String_sfilterName>"
"org.sunflow.core.renderer.BucketRenderer.prepare/$r16","org.sunflow.core.renderer.BucketRenderer.prepare/r0","<org.sunflow.core.renderer.BucketRenderer:_sorg.sunflow.core.Filter_sfilter>"
"org.sunflow.core.renderer.BucketRenderer.prepare/$r23","org.sunflow.core.renderer.BucketRenderer.prepare/r0","<org.sunflow.core.renderer.BucketRenderer:_sint[]_ssigma>"
"org.sunflow.core.renderer.BucketRenderer.prepare/r2","org.sunflow.core.renderer.BucketRenderer.prepare/r0","<org.sunflow.core.renderer.BucketRenderer:_sorg.sunflow.core.Scene_sscene>"
"org.sunflow.core.renderer.BucketRenderer.prepare/$r4","org.sunflow.core.renderer.BucketRenderer.prepare/r0","<org.sunflow.core.renderer.BucketRenderer:_sjava.lang.String_sbucketOrderName>"
"org.sunflow.core.renderer.BucketRenderer.prepare/r63","org.sunflow.core.renderer.BucketRenderer.prepare/r0","<org.sunflow.core.renderer.BucketRenderer:_sorg.sunflow.core.Filter_sfilter>"
"org.sunflow.core.renderer.BucketRenderer.prepare/$r6","org.sunflow.core.renderer.BucketRenderer.prepare/r0","<org.sunflow.core.renderer.BucketRenderer:_sorg.sunflow.core.BucketOrder_sbucketOrder>"
"org.sunflow.core.renderer.BucketRenderer.prepare/$r8","org.sunflow.core.renderer.BucketRenderer.prepare/r0","<org.sunflow.core.renderer.BucketRenderer:_sint[]_sbucketCoords>"
"org.sunflow.core.renderer.BucketRenderer.prepare/$stringconstant10","org.sunflow.core.renderer.BucketRenderer.prepare/r0","<org.sunflow.core.renderer.BucketRenderer:_sjava.lang.String_sfilterName>"
"org.sunflow.core.renderer.BucketRenderer.render/r1","org.sunflow.core.renderer.BucketRenderer.render/r0","<org.sunflow.core.renderer.BucketRenderer:_sorg.sunflow.core.Display_sdisplay>"
"org.sunflow.core.renderer.ProgressiveRenderer.prepare/r2","org.sunflow.core.renderer.ProgressiveRenderer.prepare/r0","<org.sunflow.core.renderer.ProgressiveRenderer:_sorg.sunflow.core.Scene_sscene>"
"org.sunflow.core.renderer.ProgressiveRenderer.prepare/$r3","org.sunflow.core.renderer.ProgressiveRenderer.prepare/r0","<org.sunflow.core.renderer.ProgressiveRenderer:_sint[]_ssigma>"
"org.sunflow.core.renderer.ProgressiveRenderer.render/r1","org.sunflow.core.renderer.ProgressiveRenderer.render/r0","<org.sunflow.core.renderer.ProgressiveRenderer:_sorg.sunflow.core.Display_sdisplay>"
"org.sunflow.core.renderer.ProgressiveRenderer.render/r24","org.sunflow.core.renderer.ProgressiveRenderer.render/r0","<org.sunflow.core.renderer.ProgressiveRenderer:_sjava.util.concurrent.PriorityBlockingQueue_ssmallBucketQueue>"
"org.sunflow.core.Scene.<init>/$r1","org.sunflow.core.Scene.<init>/r0","<org.sunflow.core.Scene:_sorg.sunflow.core.LightServer_slightServer>"
"org.sunflow.core.Scene.<init>/$r2","org.sunflow.core.Scene.<init>/r0","<org.sunflow.core.Scene:_sorg.sunflow.core.InstanceList_sinstanceList>"
"org.sunflow.core.Scene.<init>/$r3","org.sunflow.core.Scene.<init>/r0","<org.sunflow.core.Scene:_sorg.sunflow.core.InstanceList_sinfiniteInstanceList>"
"org.sunflow.core.Scene.<init>/$stringconstant0","org.sunflow.core.Scene.<init>/r0","<org.sunflow.core.Scene:_sjava.lang.String_sacceltype>"
"org.sunflow.core.Scene.render/$r17","org.sunflow.core.Scene.render/r0","<org.sunflow.core.Scene:_sorg.sunflow.core.AccelerationStructure_sbakingAccel>"
"org.sunflow.core.Scene.render/r41","org.sunflow.core.Scene.render/r0","<org.sunflow.core.Scene:_sjava.lang.String_sacceltype>"
"org.sunflow.core.Scene.render/$r49","org.sunflow.core.Scene.render/r0","<org.sunflow.core.Scene:_sorg.sunflow.core.AccelerationStructure_sintAccel>"
"org.sunflow.core.Scene.render/$r9","org.sunflow.core.Scene.render/r0","<org.sunflow.core.Scene:_sorg.sunflow.core.PrimitiveList_sbakingPrimitives>"
"org.sunflow.core.Scene.setBakingInstance/r1","org.sunflow.core.Scene.setBakingInstance/r0","<org.sunflow.core.Scene:_sorg.sunflow.core.Instance_sbakingInstance>"
"org.sunflow.core.Scene.setCamera/r1","org.sunflow.core.Scene.setCamera/r0","<org.sunflow.core.Scene:_sorg.sunflow.core.Camera_scamera>"
"org.sunflow.core.Scene.setInstanceLists/$r3","org.sunflow.core.Scene.setInstanceLists/r0","<org.sunflow.core.Scene:_sorg.sunflow.core.InstanceList_sinfiniteInstanceList>"
"org.sunflow.core.Scene.setInstanceLists/$r4","org.sunflow.core.Scene.setInstanceLists/r0","<org.sunflow.core.Scene:_sorg.sunflow.core.InstanceList_sinstanceList>"
"org.sunflow.core.Scene.traceBake/$r3","org.sunflow.core.Scene.traceBake/r2","<org.sunflow.core.IntersectionState:_sorg.sunflow.core.Instance_scurrent>"
"org.sunflow.core.shader.DiffuseShader.<init>/$r1","org.sunflow.core.shader.DiffuseShader.<init>/r0","<org.sunflow.core.shader.DiffuseShader:_sorg.sunflow.image.Color_sdiff>"
"org.sunflow.core.shader.DiffuseShader.update/$r4","org.sunflow.core.shader.DiffuseShader.update/r0","<org.sunflow.core.shader.DiffuseShader:_sorg.sunflow.image.Color_sdiff>"
"org.sunflow.core.shader.GlassShader.<init>/$r1","org.sunflow.core.shader.GlassShader.<init>/r0","<org.sunflow.core.shader.GlassShader:_sorg.sunflow.image.Color_scolor>"
"org.sunflow.core.shader.GlassShader.<init>/$r2","org.sunflow.core.shader.GlassShader.<init>/r0","<org.sunflow.core.shader.GlassShader:_sorg.sunflow.image.Color_sabsorbtionColor>"
"org.sunflow.core.shader.GlassShader.update/$r4","org.sunflow.core.shader.GlassShader.update/r0","<org.sunflow.core.shader.GlassShader:_sorg.sunflow.image.Color_scolor>"
"org.sunflow.core.shader.GlassShader.update/$r6","org.sunflow.core.shader.GlassShader.update/r0","<org.sunflow.core.shader.GlassShader:_sorg.sunflow.image.Color_sabsorbtionColor>"
"org.sunflow.core.shader.MirrorShader.<init>/$r1","org.sunflow.core.shader.MirrorShader.<init>/r0","<org.sunflow.core.shader.MirrorShader:_sorg.sunflow.image.Color_scolor>"
"org.sunflow.core.shader.MirrorShader.update/$r4","org.sunflow.core.shader.MirrorShader.update/r0","<org.sunflow.core.shader.MirrorShader:_sorg.sunflow.image.Color_scolor>"
"org.sunflow.core.ShadingState.addSample/r1","org.sunflow.core.ShadingState.addSample/r0","<org.sunflow.core.ShadingState:_sorg.sunflow.core.LightSample_slightSample>"
"org.sunflow.core.ShadingState.addSample/$r2","org.sunflow.core.ShadingState.addSample/r1","<org.sunflow.core.LightSample:_sorg.sunflow.core.LightSample_snext>"
"org.sunflow.core.ShadingState.createPhotonState/r2","org.sunflow.core.ShadingState.createPhotonState/r5","<org.sunflow.core.ShadingState:_sorg.sunflow.core.PhotonStore_smap>"
"org.sunflow.core.ShadingState.createPhotonState/r3","org.sunflow.core.ShadingState.createPhotonState/r5","<org.sunflow.core.ShadingState:_sorg.sunflow.core.LightServer_sserver>"
"org.sunflow.core.ShadingState.createState/r2","org.sunflow.core.ShadingState.createState/r4","<org.sunflow.core.ShadingState:_sorg.sunflow.core.LightServer_sserver>"
"org.sunflow.core.ShadingState.init/$r1","org.sunflow.core.ShadingState.init/r0","<org.sunflow.core.ShadingState:_sorg.sunflow.math.Point3_sp>"
"org.sunflow.core.ShadingState.<init>/r2","org.sunflow.core.ShadingState.<init>/r0","<org.sunflow.core.ShadingState:_sorg.sunflow.core.IntersectionState_sistate>"
"org.sunflow.core.ShadingState.init/$r2","org.sunflow.core.ShadingState.init/r0","<org.sunflow.core.ShadingState:_sorg.sunflow.math.Vector3_sn>"
"org.sunflow.core.ShadingState.<init>/r3","org.sunflow.core.ShadingState.<init>/r0","<org.sunflow.core.ShadingState:_sorg.sunflow.core.Ray_sr>"
"org.sunflow.core.ShadingState.init/$r3","org.sunflow.core.ShadingState.init/r0","<org.sunflow.core.ShadingState:_sorg.sunflow.math.Point2_stex>"
"org.sunflow.core.ShadingState.<init>/$r4","org.sunflow.core.ShadingState.<init>/r0","<org.sunflow.core.ShadingState:_sorg.sunflow.core.Instance_sinstance>"
"org.sunflow.core.ShadingState.init/$r4","org.sunflow.core.ShadingState.init/r0","<org.sunflow.core.ShadingState:_sorg.sunflow.math.Vector3_sng>"
"org.sunflow.core.ShadingState.<init>/$r5","org.sunflow.core.ShadingState.<init>/r0","<org.sunflow.core.ShadingState:_sorg.sunflow.core.LightServer_sserver>"
"org.sunflow.core.ShadingState.<init>/$r6","org.sunflow.core.ShadingState.<init>/r0","<org.sunflow.core.ShadingState:_sorg.sunflow.core.PhotonStore_smap>"
"org.sunflow.core.ShadingState$LightSampleIterator.<init>/r1","org.sunflow.core.ShadingState$LightSampleIterator.<init>/r0","<org.sunflow.core.ShadingState$LightSampleIterator:_sorg.sunflow.core.LightSample_scurrent>"
"<org.sunflow.core.ShadingState$LightSampleIterator:_sorg.sunflow.core.LightSample_snext()>/$r3","<org.sunflow.core.ShadingState$LightSampleIterator:_sorg.sunflow.core.LightSample_snext()>/r0","<org.sunflow.core.ShadingState$LightSampleIterator:_sorg.sunflow.core.LightSample_scurrent>"
"org.sunflow.core.ShadingState.setBasis/r1","org.sunflow.core.ShadingState.setBasis/r0","<org.sunflow.core.ShadingState:_sorg.sunflow.math.OrthoNormalBasis_sbasis>"
"org.sunflow.core.ShadingState.setModifier/r1","org.sunflow.core.ShadingState.setModifier/r0","<org.sunflow.core.ShadingState:_sorg.sunflow.core.Modifier_smodifier>"
"org.sunflow.core.ShadingState.setRay/r1","org.sunflow.core.ShadingState.setRay/r0","<org.sunflow.core.ShadingState:_sorg.sunflow.core.Ray_sr>"
"org.sunflow.core.ShadingState.setResult/r1","org.sunflow.core.ShadingState.setResult/r0","<org.sunflow.core.ShadingState:_sorg.sunflow.image.Color_sresult>"
"org.sunflow.core.ShadingState.setShader/r1","org.sunflow.core.ShadingState.setShader/r0","<org.sunflow.core.ShadingState:_sorg.sunflow.core.Shader_sshader>"
"<org.sunflow.core.tesselatable.BezierMesh:_svoid_s<init>(float[][])>/r1","<org.sunflow.core.tesselatable.BezierMesh:_svoid_s<init>(float[][])>/r0","<org.sunflow.core.tesselatable.BezierMesh:_sfloat[][]_spatches>"
"org.sunflow.core.tesselatable.BezierMesh.update/$r9","org.sunflow.core.tesselatable.BezierMesh.update/r0","<org.sunflow.core.tesselatable.BezierMesh:_sfloat[][]_spatches>"
"org.sunflow.image.RGBSpace.<init>/$r1","org.sunflow.image.RGBSpace.<init>/r0","<org.sunflow.image.RGBSpace:_sint[]_sGAMMA_uscoreCURVE>"
"org.sunflow.image.RGBSpace.<init>/$r2","org.sunflow.image.RGBSpace.<init>/r0","<org.sunflow.image.RGBSpace:_sint[]_sINV_uscoreGAMMA_uscoreCURVE>"
"<org.sunflow.math.BoundingBox:_svoid_s<init>(float_cfloat_cfloat)>/$r1","<org.sunflow.math.BoundingBox:_svoid_s<init>(float_cfloat_cfloat)>/r0","<org.sunflow.math.BoundingBox:_sorg.sunflow.math.Point3_sminimum>"
"<org.sunflow.math.BoundingBox:_svoid_s<init>(float_cfloat_cfloat)>/$r2","<org.sunflow.math.BoundingBox:_svoid_s<init>(float_cfloat_cfloat)>/r0","<org.sunflow.math.BoundingBox:_sorg.sunflow.math.Point3_smaximum>"
"<org.sunflow.math.BoundingBox:_svoid_s<init>(float)>/$r1","<org.sunflow.math.BoundingBox:_svoid_s<init>(float)>/r0","<org.sunflow.math.BoundingBox:_sorg.sunflow.math.Point3_sminimum>"
"<org.sunflow.math.BoundingBox:_svoid_s<init>(float)>/$r2","<org.sunflow.math.BoundingBox:_svoid_s<init>(float)>/r0","<org.sunflow.math.BoundingBox:_sorg.sunflow.math.Point3_smaximum>"
"<org.sunflow.math.BoundingBox:_svoid_s<init>(org.sunflow.math.BoundingBox)>/$r2","<org.sunflow.math.BoundingBox:_svoid_s<init>(org.sunflow.math.BoundingBox)>/r0","<org.sunflow.math.BoundingBox:_sorg.sunflow.math.Point3_sminimum>"
"<org.sunflow.math.BoundingBox:_svoid_s<init>(org.sunflow.math.BoundingBox)>/$r4","<org.sunflow.math.BoundingBox:_svoid_s<init>(org.sunflow.math.BoundingBox)>/r0","<org.sunflow.math.BoundingBox:_sorg.sunflow.math.Point3_smaximum>"
"<org.sunflow.math.BoundingBox:_svoid_s<init>()>/$r1","<org.sunflow.math.BoundingBox:_svoid_s<init>()>/r0","<org.sunflow.math.BoundingBox:_sorg.sunflow.math.Point3_sminimum>"
"<org.sunflow.math.BoundingBox:_svoid_s<init>()>/$r2","<org.sunflow.math.BoundingBox:_svoid_s<init>()>/r0","<org.sunflow.math.BoundingBox:_sorg.sunflow.math.Point3_smaximum>"
"org.sunflow.math.OrthoNormalBasis.<init>/$r1","org.sunflow.math.OrthoNormalBasis.<init>/r0","<org.sunflow.math.OrthoNormalBasis:_sorg.sunflow.math.Vector3_su>"
"org.sunflow.math.OrthoNormalBasis.<init>/$r2","org.sunflow.math.OrthoNormalBasis.<init>/r0","<org.sunflow.math.OrthoNormalBasis:_sorg.sunflow.math.Vector3_sv>"
"org.sunflow.math.OrthoNormalBasis.<init>/$r3","org.sunflow.math.OrthoNormalBasis.<init>/r0","<org.sunflow.math.OrthoNormalBasis:_sorg.sunflow.math.Vector3_sw>"
"org.sunflow.math.OrthoNormalBasis.swapUV/r1","org.sunflow.math.OrthoNormalBasis.swapUV/r0","<org.sunflow.math.OrthoNormalBasis:_sorg.sunflow.math.Vector3_sv>"
"org.sunflow.math.OrthoNormalBasis.swapUV/$r2","org.sunflow.math.OrthoNormalBasis.swapUV/r0","<org.sunflow.math.OrthoNormalBasis:_sorg.sunflow.math.Vector3_su>"
"org.sunflow.math.OrthoNormalBasis.swapVW/r1","org.sunflow.math.OrthoNormalBasis.swapVW/r0","<org.sunflow.math.OrthoNormalBasis:_sorg.sunflow.math.Vector3_sw>"
"org.sunflow.math.OrthoNormalBasis.swapVW/$r2","org.sunflow.math.OrthoNormalBasis.swapVW/r0","<org.sunflow.math.OrthoNormalBasis:_sorg.sunflow.math.Vector3_sv>"
"org.sunflow.math.OrthoNormalBasis.swapWU/r1","org.sunflow.math.OrthoNormalBasis.swapWU/r0","<org.sunflow.math.OrthoNormalBasis:_sorg.sunflow.math.Vector3_su>"
"org.sunflow.math.OrthoNormalBasis.swapWU/$r2","org.sunflow.math.OrthoNormalBasis.swapWU/r0","<org.sunflow.math.OrthoNormalBasis:_sorg.sunflow.math.Vector3_sw>"
"org.sunflow.RenderObjectMap.<init>/$r1","org.sunflow.RenderObjectMap.<init>/r0","<org.sunflow.RenderObjectMap:_sorg.sunflow.util.FastHashMap_srenderObjects>"
"<org.sunflow.RenderObjectMap$RenderObjectHandle:_svoid_s<init>(org.sunflow.core.Camera)>/r1","<org.sunflow.RenderObjectMap$RenderObjectHandle:_svoid_s<init>(org.sunflow.core.Camera)>/r0","<org.sunflow.RenderObjectMap$RenderObjectHandle:_sorg.sunflow.core.RenderObject_sobj>"
"<org.sunflow.RenderObjectMap$RenderObjectHandle:_svoid_s<init>(org.sunflow.core.Camera)>/$r2","<org.sunflow.RenderObjectMap$RenderObjectHandle:_svoid_s<init>(org.sunflow.core.Camera)>/r0","<org.sunflow.RenderObjectMap$RenderObjectHandle:_sorg.sunflow.RenderObjectMap$RenderObjectType_stype>"
"<org.sunflow.RenderObjectMap$RenderObjectHandle:_svoid_s<init>(org.sunflow.core.Instance)>/r1","<org.sunflow.RenderObjectMap$RenderObjectHandle:_svoid_s<init>(org.sunflow.core.Instance)>/r0","<org.sunflow.RenderObjectMap$RenderObjectHandle:_sorg.sunflow.core.RenderObject_sobj>"
"<org.sunflow.RenderObjectMap$RenderObjectHandle:_svoid_s<init>(org.sunflow.core.Instance)>/$r2","<org.sunflow.RenderObjectMap$RenderObjectHandle:_svoid_s<init>(org.sunflow.core.Instance)>/r0","<org.sunflow.RenderObjectMap$RenderObjectHandle:_sorg.sunflow.RenderObjectMap$RenderObjectType_stype>"
"<org.sunflow.RenderObjectMap$RenderObjectHandle:_svoid_s<init>(org.sunflow.core.LightSource)>/r1","<org.sunflow.RenderObjectMap$RenderObjectHandle:_svoid_s<init>(org.sunflow.core.LightSource)>/r0","<org.sunflow.RenderObjectMap$RenderObjectHandle:_sorg.sunflow.core.RenderObject_sobj>"
"<org.sunflow.RenderObjectMap$RenderObjectHandle:_svoid_s<init>(org.sunflow.core.LightSource)>/$r2","<org.sunflow.RenderObjectMap$RenderObjectHandle:_svoid_s<init>(org.sunflow.core.LightSource)>/r0","<org.sunflow.RenderObjectMap$RenderObjectHandle:_sorg.sunflow.RenderObjectMap$RenderObjectType_stype>"
"<org.sunflow.RenderObjectMap$RenderObjectHandle:_svoid_s<init>(org.sunflow.core.Modifier)>/r1","<org.sunflow.RenderObjectMap$RenderObjectHandle:_svoid_s<init>(org.sunflow.core.Modifier)>/r0","<org.sunflow.RenderObjectMap$RenderObjectHandle:_sorg.sunflow.core.RenderObject_sobj>"
"<org.sunflow.RenderObjectMap$RenderObjectHandle:_svoid_s<init>(org.sunflow.core.Modifier)>/$r2","<org.sunflow.RenderObjectMap$RenderObjectHandle:_svoid_s<init>(org.sunflow.core.Modifier)>/r0","<org.sunflow.RenderObjectMap$RenderObjectHandle:_sorg.sunflow.RenderObjectMap$RenderObjectType_stype>"
"<org.sunflow.RenderObjectMap$RenderObjectHandle:_svoid_s<init>(org.sunflow.core.Options)>/r1","<org.sunflow.RenderObjectMap$RenderObjectHandle:_svoid_s<init>(org.sunflow.core.Options)>/r0","<org.sunflow.RenderObjectMap$RenderObjectHandle:_sorg.sunflow.core.RenderObject_sobj>"
"<org.sunflow.RenderObjectMap$RenderObjectHandle:_svoid_s<init>(org.sunflow.core.Options)>/$r2","<org.sunflow.RenderObjectMap$RenderObjectHandle:_svoid_s<init>(org.sunflow.core.Options)>/r0","<org.sunflow.RenderObjectMap$RenderObjectHandle:_sorg.sunflow.RenderObjectMap$RenderObjectType_stype>"
"<org.sunflow.RenderObjectMap$RenderObjectHandle:_svoid_s<init>(org.sunflow.core.PrimitiveList)>/$r2","<org.sunflow.RenderObjectMap$RenderObjectHandle:_svoid_s<init>(org.sunflow.core.PrimitiveList)>/r0","<org.sunflow.RenderObjectMap$RenderObjectHandle:_sorg.sunflow.core.RenderObject_sobj>"
"<org.sunflow.RenderObjectMap$RenderObjectHandle:_svoid_s<init>(org.sunflow.core.PrimitiveList)>/$r3","<org.sunflow.RenderObjectMap$RenderObjectHandle:_svoid_s<init>(org.sunflow.core.PrimitiveList)>/r0","<org.sunflow.RenderObjectMap$RenderObjectHandle:_sorg.sunflow.RenderObjectMap$RenderObjectType_stype>"
"<org.sunflow.RenderObjectMap$RenderObjectHandle:_svoid_s<init>(org.sunflow.core.Shader)>/r1","<org.sunflow.RenderObjectMap$RenderObjectHandle:_svoid_s<init>(org.sunflow.core.Shader)>/r0","<org.sunflow.RenderObjectMap$RenderObjectHandle:_sorg.sunflow.core.RenderObject_sobj>"
"<org.sunflow.RenderObjectMap$RenderObjectHandle:_svoid_s<init>(org.sunflow.core.Shader)>/$r2","<org.sunflow.RenderObjectMap$RenderObjectHandle:_svoid_s<init>(org.sunflow.core.Shader)>/r0","<org.sunflow.RenderObjectMap$RenderObjectHandle:_sorg.sunflow.RenderObjectMap$RenderObjectType_stype>"
"<org.sunflow.RenderObjectMap$RenderObjectHandle:_svoid_s<init>(org.sunflow.core.Tesselatable)>/$r2","<org.sunflow.RenderObjectMap$RenderObjectHandle:_svoid_s<init>(org.sunflow.core.Tesselatable)>/r0","<org.sunflow.RenderObjectMap$RenderObjectHandle:_sorg.sunflow.core.RenderObject_sobj>"
"<org.sunflow.RenderObjectMap$RenderObjectHandle:_svoid_s<init>(org.sunflow.core.Tesselatable)>/$r3","<org.sunflow.RenderObjectMap$RenderObjectHandle:_svoid_s<init>(org.sunflow.core.Tesselatable)>/r0","<org.sunflow.RenderObjectMap$RenderObjectHandle:_sorg.sunflow.RenderObjectMap$RenderObjectType_stype>"
"org.sunflow.SunflowAPI.reset/$r1","org.sunflow.SunflowAPI.reset/r0","<org.sunflow.SunflowAPI:_sorg.sunflow.core.Scene_sscene>"
"org.sunflow.SunflowAPI.reset/$r2","org.sunflow.SunflowAPI.reset/r0","<org.sunflow.SunflowAPI:_sorg.sunflow.core.renderer.BucketRenderer_sbucketRenderer>"
"org.sunflow.SunflowAPI.reset/$r3","org.sunflow.SunflowAPI.reset/r0","<org.sunflow.SunflowAPI:_sorg.sunflow.core.renderer.ProgressiveRenderer_sprogressiveRenderer>"
"org.sunflow.SunflowAPI.reset/$r4","org.sunflow.SunflowAPI.reset/r0","<org.sunflow.SunflowAPI:_sorg.sunflow.system.SearchPath_sincludeSearchPath>"
"org.sunflow.SunflowAPI.reset/$r5","org.sunflow.SunflowAPI.reset/r0","<org.sunflow.SunflowAPI:_sorg.sunflow.system.SearchPath_stextureSearchPath>"
"org.sunflow.SunflowAPI.reset/$r6","org.sunflow.SunflowAPI.reset/r0","<org.sunflow.SunflowAPI:_sorg.sunflow.core.ParameterList_sparameterList>"
"org.sunflow.SunflowAPI.reset/$r7","org.sunflow.SunflowAPI.reset/r0","<org.sunflow.SunflowAPI:_sorg.sunflow.RenderObjectMap_srenderObjects>"
"org.sunflow.system.SearchPath.<init>/r1","org.sunflow.system.SearchPath.<init>/r0","<org.sunflow.system.SearchPath:_sjava.lang.String_stype>"
"org.sunflow.system.SearchPath.<init>/$r2","org.sunflow.system.SearchPath.<init>/r0","<org.sunflow.system.SearchPath:_sjava.util.LinkedList_ssearchPath>"
"org.sunflow.system.ui.ConsoleInterface.taskStart/r1","org.sunflow.system.ui.ConsoleInterface.taskStart/r0","<org.sunflow.system.ui.ConsoleInterface:_sjava.lang.String_stask>"
"org.sunflow.util.FastHashMap.clear/$r1","org.sunflow.util.FastHashMap.clear/r0","<org.sunflow.util.FastHashMap:_sorg.sunflow.util.FastHashMap$Entry[]_sentries>"
"org.sunflow.util.FastHashMap$Entry.access$202/r1","org.sunflow.util.FastHashMap$Entry.access$202/r0","<org.sunflow.util.FastHashMap$Entry:_sjava.lang.Object_sv>"
"<org.sunflow.util.FastHashMap$EntryIterator:_svoid_s<init>(org.sunflow.util.FastHashMap)>/r1","<org.sunflow.util.FastHashMap$EntryIterator:_svoid_s<init>(org.sunflow.util.FastHashMap)>/r0","<org.sunflow.util.FastHashMap$EntryIterator:_sorg.sunflow.util.FastHashMap_sthis$0>"
"<org.sunflow.util.FastHashMap$Entry:_svoid_s<init>(java.lang.Object_cjava.lang.Object)>/r1","<org.sunflow.util.FastHashMap$Entry:_svoid_s<init>(java.lang.Object_cjava.lang.Object)>/r0","<org.sunflow.util.FastHashMap$Entry:_sjava.lang.Object_sk>"
"<org.sunflow.util.FastHashMap$Entry:_svoid_s<init>(java.lang.Object_cjava.lang.Object)>/r2","<org.sunflow.util.FastHashMap$Entry:_svoid_s<init>(java.lang.Object_cjava.lang.Object)>/r0","<org.sunflow.util.FastHashMap$Entry:_sjava.lang.Object_sv>"
"org.sunflow.util.FastHashMap.resize/r1","org.sunflow.util.FastHashMap.resize/r0","<org.sunflow.util.FastHashMap:_sorg.sunflow.util.FastHashMap$Entry[]_sentries>"
"org.sunflow.util.IntArray.add/$r3","org.sunflow.util.IntArray.add/r0","<org.sunflow.util.IntArray:_sint[]_sarray>"
"<org.sunflow.util.IntArray:_svoid_s<init>(int)>/$r1","<org.sunflow.util.IntArray:_svoid_s<init>(int)>/r0","<org.sunflow.util.IntArray:_sint[]_sarray>"
"<org.sunflow.util.IntArray:_svoid_s<init>()>/$r1","<org.sunflow.util.IntArray:_svoid_s<init>()>/r0","<org.sunflow.util.IntArray:_sint[]_sarray>"
"org.sunflow.util.IntArray.trim/$r3","org.sunflow.util.IntArray.trim/r0","<org.sunflow.util.IntArray:_sint[]_sarray>"
