digraph graphname {
   commentnode [fillcolor=lightyellow shape=box label="GRAPH GENERATED FROM TEST DATA\ndata:  benchmarkdata/generatedtests/xalan-tmp/renamed2/\ngreen edges - NEW\nblack edges - ASSIGN\nred egdes - STORE\nblue edges - LOAD"]
  hobj3 [fillcolor=green]
  hobj3 -> v3 [color=darkgreen fontcolor=darkgreen];
  v2 -> v5 [color=black fontcolor=black];
  v2 -> v7 [color=black fontcolor=black];
  hobj1 [fillcolor=green]
  hobj1 -> v1 [color=darkgreen fontcolor=darkgreen];
  v7 -> v8 [color=black fontcolor=black];
  v7 -> v7 [label=load_f1 color=blue fontcolor=blue];
  v3 -> v6 [label=store_f1 color=red fontcolor=red];
  v4 -> v5 [label=store_f1 color=red fontcolor=red];
  hobj2 [fillcolor=green]
  hobj2 -> v2 [color=darkgreen fontcolor=darkgreen];
  v1 -> v4 [color=black fontcolor=black];
  v1 -> v6 [color=black fontcolor=black];
}
