"EDU.purdue.cs.bloat.tree.Tree.visit_iinc/$r24","EDU.purdue.cs.bloat.tree.Tree.visit_iinc/new EDU.purdue.cs.bloat.tree.LocalExpr/1"
"EDU.purdue.cs.bloat.tree.StackOptimizer.optimize/$r63","EDU.purdue.cs.bloat.tree.StackOptimizer.optimize/new EDU.purdue.cs.bloat.tree.Type1Visitor/0"
"EDU.purdue.cs.bloat.tree.Tree.visit_ior/$r10","EDU.purdue.cs.bloat.tree.Tree.visit_ior/new EDU.purdue.cs.bloat.tree.ArithExpr/0"
