"EDU.purdue.cs.bloat.tree.Type1Visitor.search/r0","EDU.purdue.cs.bloat.tree.Type1Visitor.search/$r8","<EDU.purdue.cs.bloat.tree.Type1Visitor: EDU.purdue.cs.bloat.tree.Node turningPoint>"
"EDU.purdue.cs.bloat.tree.Node.parent/r0","EDU.purdue.cs.bloat.tree.Node.parent/$r10","<EDU.purdue.cs.bloat.tree.Node: EDU.purdue.cs.bloat.tree.Node parent>"
"EDU.purdue.cs.bloat.tree.ArithExpr.left/r0","EDU.purdue.cs.bloat.tree.ArithExpr.left/$r1","<EDU.purdue.cs.bloat.tree.ArithExpr: EDU.purdue.cs.bloat.tree.Expr left>"
